[gd_scene load_steps=3 format=2]

[ext_resource path="res://Scenes_finales/Levels/Checkpoint.gd" type="Script" id=1]

[sub_resource type="BoxShape" id=8]
extents = Vector3( 1, 1.67159, 1 )

[node name="Checkpoint" type="Spatial"]
transform = Transform( 1, 0, 0, 0, 1, 0, 0, 0, 1, 0, 6.64656, 0 )
script = ExtResource( 1 )

[node name="Area" type="Area" parent="."]

[node name="CollisionShape" type="CollisionShape" parent="Area"]
transform = Transform( 8.21645, 0, 0, 0, 3.95072, 0, 0, 0, 3.95072, 0, 0, 0 )
shape = SubResource( 8 )
