[gd_scene load_steps=2 format=2]

[ext_resource path="res://Assets/SpinPlatform/SpinPlatform.tscn" type="PackedScene" id=2]

[node name="RotatingPlatform" type="Spatial"]

[node name="SpinPlatform" type="KinematicBody" parent="." instance=ExtResource( 2 )]
transform = Transform( -1.17122e-07, 0, -2.67944, 0, 2.67944, 0, 2.67944, 0, -1.17122e-07, 0, -1.45013, 0 )
