[gd_scene load_steps=5 format=2]

[ext_resource path="res://Assets/dusttrail.png" type="Texture" id=1]
[ext_resource path="res://Player/dust_trail_particle_material.tres" type="Material" id=2]

[sub_resource type="SpatialMaterial" id=1]
flags_transparent = true
params_billboard_mode = 3
particles_anim_h_frames = 1
particles_anim_v_frames = 1
particles_anim_loop = false
albedo_texture = ExtResource( 1 )

[sub_resource type="QuadMesh" id=2]
material = SubResource( 1 )

[node name="DustTrail" type="Particles"]
transform = Transform( 1, 0, 0, 0, 1, 0, 0, 0, 1, 0.0551009, -0.733093, -2.16383 )
visibility_aabb = AABB( -4, -4, -3.42627, 8, 8, 8 )
local_coords = false
process_material = ExtResource( 2 )
draw_pass_1 = SubResource( 2 )
