[gd_scene load_steps=3 format=2]

[ext_resource path="res://Assets/IronBeam/IronBeam.tscn" type="PackedScene" id=1]
[ext_resource path="res://Assets/Guirlande/guirlande.tscn" type="PackedScene" id=2]

[node name="IronBeamWithGuirlandes" type="Spatial"]

[node name="IronBeam" parent="." instance=ExtResource( 1 )]
transform = Transform( -8.30846e-07, 0, 5.0997, 0, 5.0997, 0, -5.0997, 0, -8.30846e-07, -0.001, 0, -15 )

[node name="IronBeam2" parent="." instance=ExtResource( 1 )]
transform = Transform( -8.30846e-07, 0, 5.0997, 0, 5.0997, 0, -5.0997, 0, -8.30846e-07, 0, 0, 15 )

[node name="guirlande" parent="." instance=ExtResource( 2 )]
transform = Transform( -8.55338e-07, 0, 5.25003, -0.166922, 5.24737, -2.71951e-08, -5.24737, -0.166922, -8.54906e-07, 0, 17.781, 0.404866 )
