[gd_scene load_steps=8 format=2]

[sub_resource type="SpatialMaterial" id=3]
resource_name = "Black"
params_cull_mode = 2
albedo_color = Color( 0, 0, 0, 1 )
roughness = 0.5
emission_enabled = true
emission = Color( 0, 0, 0, 1 )
emission_energy = 1.0
emission_operator = 0
emission_on_uv2 = false

[sub_resource type="ArrayMesh" id=1]
resource_name = "NurbsPath"
surfaces/0 = {
"aabb": AABB( -1.96015, 0.0713071, -0.0162375, 3.90447, 0.623406, 0.0650739 ),
"array_data": PoolByteArray( 59, 226, 212, 191, 18, 151, 214, 62, 109, 180, 71, 188, 250, 2, 130, 0, 114, 203, 250, 129, 114, 45, 0, 0, 46, 230, 250, 191, 161, 103, 16, 63, 118, 100, 20, 61, 197, 144, 6, 0, 111, 197, 243, 129, 114, 41, 0, 52, 94, 149, 213, 191, 99, 137, 208, 62, 129, 129, 219, 57, 202, 142, 253, 0, 114, 202, 250, 129, 114, 45, 0, 52, 243, 29, 250, 191, 111, 90, 19, 63, 89, 128, 193, 60, 246, 8, 130, 0, 111, 197, 243, 129, 114, 41, 0, 0, 46, 230, 250, 191, 161, 103, 16, 63, 118, 100, 20, 61, 197, 144, 6, 0, 111, 197, 243, 129, 114, 41, 0, 52, 59, 226, 212, 191, 18, 151, 214, 62, 109, 180, 71, 188, 250, 2, 130, 0, 114, 203, 250, 129, 114, 45, 0, 0, 181, 58, 212, 191, 188, 64, 220, 62, 64, 130, 219, 57, 53, 115, 253, 0, 114, 203, 250, 129, 114, 45, 0, 58, 243, 29, 250, 191, 111, 90, 19, 63, 89, 128, 193, 60, 246, 8, 130, 0, 111, 197, 243, 129, 114, 41, 0, 60, 59, 226, 212, 191, 18, 151, 214, 62, 109, 180, 71, 188, 250, 2, 130, 0, 114, 203, 250, 129, 114, 45, 0, 60, 14, 99, 249, 191, 42, 27, 22, 63, 120, 100, 20, 61, 60, 111, 5, 0, 111, 197, 243, 129, 114, 41, 0, 58, 243, 29, 250, 191, 111, 90, 19, 63, 89, 128, 193, 60, 246, 8, 130, 0, 111, 197, 243, 129, 114, 41, 0, 60, 181, 58, 212, 191, 188, 64, 220, 62, 64, 130, 219, 57, 53, 115, 253, 0, 114, 203, 250, 129, 114, 45, 0, 58, 243, 29, 250, 191, 111, 90, 19, 63, 194, 8, 72, 61, 13, 252, 126, 0, 111, 197, 243, 129, 114, 41, 0, 56, 181, 58, 212, 191, 188, 64, 220, 62, 64, 130, 219, 57, 53, 115, 253, 0, 114, 203, 250, 129, 114, 45, 0, 58, 59, 226, 212, 191, 18, 151, 214, 62, 143, 108, 85, 60, 5, 253, 126, 0, 114, 202, 249, 129, 114, 45, 0, 56, 243, 29, 250, 191, 111, 90, 19, 63, 194, 8, 72, 61, 13, 252, 126, 0, 111, 197, 243, 129, 114, 41, 0, 56, 14, 99, 249, 191, 42, 27, 22, 63, 120, 100, 20, 61, 60, 111, 5, 0, 111, 197, 243, 129, 114, 41, 0, 58, 181, 58, 212, 191, 188, 64, 220, 62, 64, 130, 219, 57, 53, 115, 253, 0, 114, 203, 250, 129, 114, 45, 0, 58, 46, 230, 250, 191, 161, 103, 16, 63, 118, 100, 20, 61, 197, 144, 6, 0, 111, 197, 243, 129, 114, 41, 0, 52, 59, 226, 212, 191, 18, 151, 214, 62, 143, 108, 85, 60, 5, 253, 126, 0, 114, 202, 249, 129, 114, 45, 0, 56, 94, 149, 213, 191, 99, 137, 208, 62, 129, 129, 219, 57, 202, 142, 253, 0, 114, 202, 250, 129, 114, 45, 0, 52, 46, 230, 250, 191, 161, 103, 16, 63, 118, 100, 20, 61, 197, 144, 6, 0, 111, 197, 243, 129, 114, 41, 0, 52, 243, 29, 250, 191, 111, 90, 19, 63, 194, 8, 72, 61, 13, 252, 126, 0, 111, 197, 243, 129, 114, 41, 0, 56, 59, 226, 212, 191, 18, 151, 214, 62, 143, 108, 85, 60, 5, 253, 126, 0, 114, 202, 249, 129, 114, 45, 0, 56, 220, 159, 190, 191, 172, 95, 178, 62, 2, 219, 71, 188, 0, 1, 130, 0, 118, 210, 0, 129, 21, 48, 0, 0, 94, 149, 213, 191, 99, 137, 208, 62, 129, 129, 219, 57, 202, 142, 253, 0, 114, 202, 250, 129, 114, 45, 0, 52, 16, 62, 191, 191, 243, 47, 172, 62, 71, 153, 214, 57, 210, 138, 0, 0, 118, 210, 0, 129, 21, 48, 0, 52, 59, 226, 212, 191, 18, 151, 214, 62, 109, 180, 71, 188, 250, 2, 130, 0, 114, 203, 250, 129, 114, 45, 0, 0, 94, 149, 213, 191, 99, 137, 208, 62, 129, 129, 219, 57, 202, 142, 253, 0, 114, 202, 250, 129, 114, 45, 0, 52, 220, 159, 190, 191, 172, 95, 178, 62, 2, 219, 71, 188, 0, 1, 130, 0, 118, 210, 0, 129, 21, 48, 0, 0, 149, 11, 190, 191, 123, 44, 184, 62, 58, 154, 214, 57, 46, 118, 0, 0, 118, 210, 0, 129, 21, 48, 0, 58, 59, 226, 212, 191, 18, 151, 214, 62, 109, 180, 71, 188, 250, 2, 130, 0, 114, 203, 250, 129, 114, 45, 0, 60, 220, 159, 190, 191, 172, 95, 178, 62, 2, 219, 71, 188, 0, 1, 130, 0, 118, 210, 0, 129, 21, 48, 0, 60, 181, 58, 212, 191, 188, 64, 220, 62, 64, 130, 219, 57, 53, 115, 253, 0, 114, 203, 250, 129, 114, 45, 0, 58, 59, 226, 212, 191, 18, 151, 214, 62, 109, 180, 71, 188, 250, 2, 130, 0, 114, 203, 250, 129, 114, 45, 0, 60, 149, 11, 190, 191, 123, 44, 184, 62, 58, 154, 214, 57, 46, 118, 0, 0, 118, 210, 0, 129, 21, 48, 0, 58, 59, 226, 212, 191, 18, 151, 214, 62, 143, 108, 85, 60, 5, 253, 126, 0, 114, 202, 249, 129, 114, 45, 0, 56, 149, 11, 190, 191, 123, 44, 184, 62, 58, 154, 214, 57, 46, 118, 0, 0, 118, 210, 0, 129, 21, 48, 0, 58, 220, 159, 190, 191, 172, 95, 178, 62, 158, 68, 85, 60, 0, 1, 126, 0, 118, 210, 0, 129, 21, 48, 0, 56, 59, 226, 212, 191, 18, 151, 214, 62, 143, 108, 85, 60, 5, 253, 126, 0, 114, 202, 249, 129, 114, 45, 0, 56, 181, 58, 212, 191, 188, 64, 220, 62, 64, 130, 219, 57, 53, 115, 253, 0, 114, 203, 250, 129, 114, 45, 0, 58, 149, 11, 190, 191, 123, 44, 184, 62, 58, 154, 214, 57, 46, 118, 0, 0, 118, 210, 0, 129, 21, 48, 0, 58, 94, 149, 213, 191, 99, 137, 208, 62, 129, 129, 219, 57, 202, 142, 253, 0, 114, 202, 250, 129, 114, 45, 0, 52, 220, 159, 190, 191, 172, 95, 178, 62, 158, 68, 85, 60, 0, 1, 126, 0, 118, 210, 0, 129, 21, 48, 0, 56, 16, 62, 191, 191, 243, 47, 172, 62, 71, 153, 214, 57, 210, 138, 0, 0, 118, 210, 0, 129, 21, 48, 0, 52, 94, 149, 213, 191, 99, 137, 208, 62, 129, 129, 219, 57, 202, 142, 253, 0, 114, 202, 250, 129, 114, 45, 0, 52, 59, 226, 212, 191, 18, 151, 214, 62, 143, 108, 85, 60, 5, 253, 126, 0, 114, 202, 249, 129, 114, 45, 0, 56, 220, 159, 190, 191, 172, 95, 178, 62, 158, 68, 85, 60, 0, 1, 126, 0, 118, 210, 0, 129, 21, 48, 0, 56, 51, 247, 168, 191, 72, 13, 145, 62, 191, 213, 68, 188, 0, 0, 130, 0, 119, 213, 0, 129, 114, 49, 0, 0, 16, 62, 191, 191, 243, 47, 172, 62, 71, 153, 214, 57, 210, 138, 0, 0, 118, 210, 0, 129, 21, 48, 0, 52, 215, 128, 169, 191, 52, 193, 138, 62, 186, 148, 27, 58, 213, 137, 0, 0, 119, 213, 0, 129, 114, 49, 0, 52, 220, 159, 190, 191, 172, 95, 178, 62, 2, 219, 71, 188, 0, 1, 130, 0, 118, 210, 0, 129, 21, 48, 0, 0, 16, 62, 191, 191, 243, 47, 172, 62, 71, 153, 214, 57, 210, 138, 0, 0, 118, 210, 0, 129, 21, 48, 0, 52, 51, 247, 168, 191, 72, 13, 145, 62, 191, 213, 68, 188, 0, 0, 130, 0, 119, 213, 0, 129, 114, 49, 0, 0, 228, 117, 168, 191, 72, 248, 150, 62, 251, 148, 27, 58, 43, 119, 0, 0, 119, 213, 0, 129, 114, 49, 0, 58, 220, 159, 190, 191, 172, 95, 178, 62, 2, 219, 71, 188, 0, 1, 130, 0, 118, 210, 0, 129, 21, 48, 0, 60, 51, 247, 168, 191, 72, 13, 145, 62, 191, 213, 68, 188, 0, 0, 130, 0, 119, 213, 0, 129, 114, 49, 0, 60, 149, 11, 190, 191, 123, 44, 184, 62, 58, 154, 214, 57, 46, 118, 0, 0, 118, 210, 0, 129, 21, 48, 0, 58, 220, 159, 190, 191, 172, 95, 178, 62, 2, 219, 71, 188, 0, 1, 130, 0, 118, 210, 0, 129, 21, 48, 0, 60, 228, 117, 168, 191, 72, 248, 150, 62, 251, 148, 27, 58, 43, 119, 0, 0, 119, 213, 0, 129, 114, 49, 0, 58, 220, 159, 190, 191, 172, 95, 178, 62, 158, 68, 85, 60, 0, 1, 126, 0, 118, 210, 0, 129, 21, 48, 0, 56, 228, 117, 168, 191, 72, 248, 150, 62, 251, 148, 27, 58, 43, 119, 0, 0, 119, 213, 0, 129, 114, 49, 0, 58, 51, 247, 168, 191, 72, 13, 145, 62, 93, 72, 88, 60, 0, 0, 126, 0, 119, 213, 0, 129, 114, 49, 0, 56, 220, 159, 190, 191, 172, 95, 178, 62, 158, 68, 85, 60, 0, 1, 126, 0, 118, 210, 0, 129, 21, 48, 0, 56, 149, 11, 190, 191, 123, 44, 184, 62, 58, 154, 214, 57, 46, 118, 0, 0, 118, 210, 0, 129, 21, 48, 0, 58, 228, 117, 168, 191, 72, 248, 150, 62, 251, 148, 27, 58, 43, 119, 0, 0, 119, 213, 0, 129, 114, 49, 0, 58, 16, 62, 191, 191, 243, 47, 172, 62, 71, 153, 214, 57, 210, 138, 0, 0, 118, 210, 0, 129, 21, 48, 0, 52, 51, 247, 168, 191, 72, 13, 145, 62, 93, 72, 88, 60, 0, 0, 126, 0, 119, 213, 0, 129, 114, 49, 0, 56, 215, 128, 169, 191, 52, 193, 138, 62, 186, 148, 27, 58, 213, 137, 0, 0, 119, 213, 0, 129, 114, 49, 0, 52, 16, 62, 191, 191, 243, 47, 172, 62, 71, 153, 214, 57, 210, 138, 0, 0, 118, 210, 0, 129, 21, 48, 0, 52, 220, 159, 190, 191, 172, 95, 178, 62, 158, 68, 85, 60, 0, 1, 126, 0, 118, 210, 0, 129, 21, 48, 0, 56, 51, 247, 168, 191, 72, 13, 145, 62, 93, 72, 88, 60, 0, 0, 126, 0, 119, 213, 0, 129, 114, 49, 0, 56, 160, 210, 146, 191, 13, 56, 102, 62, 127, 45, 52, 188, 0, 0, 130, 0, 121, 221, 0, 129, 206, 50, 0, 0, 215, 128, 169, 191, 52, 193, 138, 62, 186, 148, 27, 58, 213, 137, 0, 0, 119, 213, 0, 129, 114, 49, 0, 52, 50, 72, 147, 191, 134, 113, 89, 62, 206, 6, 211, 58, 221, 135, 0, 0, 121, 221, 0, 129, 206, 50, 0, 52, 51, 247, 168, 191, 72, 13, 145, 62, 191, 213, 68, 188, 0, 0, 130, 0, 119, 213, 0, 129, 114, 49, 0, 0, 215, 128, 169, 191, 52, 193, 138, 62, 186, 148, 27, 58, 213, 137, 0, 0, 119, 213, 0, 129, 114, 49, 0, 52, 160, 210, 146, 191, 13, 56, 102, 62, 127, 45, 52, 188, 0, 0, 130, 0, 121, 221, 0, 129, 206, 50, 0, 0, 233, 99, 146, 191, 229, 64, 114, 62, 1, 7, 211, 58, 35, 121, 0, 0, 121, 221, 0, 129, 206, 50, 0, 58, 51, 247, 168, 191, 72, 13, 145, 62, 191, 213, 68, 188, 0, 0, 130, 0, 119, 213, 0, 129, 114, 49, 0, 60, 160, 210, 146, 191, 13, 56, 102, 62, 127, 45, 52, 188, 0, 0, 130, 0, 121, 221, 0, 129, 206, 50, 0, 60, 228, 117, 168, 191, 72, 248, 150, 62, 251, 148, 27, 58, 43, 119, 0, 0, 119, 213, 0, 129, 114, 49, 0, 58, 51, 247, 168, 191, 72, 13, 145, 62, 191, 213, 68, 188, 0, 0, 130, 0, 119, 213, 0, 129, 114, 49, 0, 60, 233, 99, 146, 191, 229, 64, 114, 62, 1, 7, 211, 58, 35, 121, 0, 0, 121, 221, 0, 129, 206, 50, 0, 58, 51, 247, 168, 191, 72, 13, 145, 62, 93, 72, 88, 60, 0, 0, 126, 0, 119, 213, 0, 129, 114, 49, 0, 56, 233, 99, 146, 191, 229, 64, 114, 62, 1, 7, 211, 58, 35, 121, 0, 0, 121, 221, 0, 129, 206, 50, 0, 58, 160, 210, 146, 191, 14, 56, 102, 62, 57, 239, 104, 60, 0, 0, 126, 0, 121, 221, 0, 129, 206, 50, 0, 56, 51, 247, 168, 191, 72, 13, 145, 62, 93, 72, 88, 60, 0, 0, 126, 0, 119, 213, 0, 129, 114, 49, 0, 56, 228, 117, 168, 191, 72, 248, 150, 62, 251, 148, 27, 58, 43, 119, 0, 0, 119, 213, 0, 129, 114, 49, 0, 58, 233, 99, 146, 191, 229, 64, 114, 62, 1, 7, 211, 58, 35, 121, 0, 0, 121, 221, 0, 129, 206, 50, 0, 58, 215, 128, 169, 191, 52, 193, 138, 62, 186, 148, 27, 58, 213, 137, 0, 0, 119, 213, 0, 129, 114, 49, 0, 52, 160, 210, 146, 191, 14, 56, 102, 62, 57, 239, 104, 60, 0, 0, 126, 0, 121, 221, 0, 129, 206, 50, 0, 56, 50, 72, 147, 191, 134, 113, 89, 62, 206, 6, 211, 58, 221, 135, 0, 0, 121, 221, 0, 129, 206, 50, 0, 52, 215, 128, 169, 191, 52, 193, 138, 62, 186, 148, 27, 58, 213, 137, 0, 0, 119, 213, 0, 129, 114, 49, 0, 52, 51, 247, 168, 191, 72, 13, 145, 62, 93, 72, 88, 60, 0, 0, 126, 0, 119, 213, 0, 129, 114, 49, 0, 56, 160, 210, 146, 191, 14, 56, 102, 62, 57, 239, 104, 60, 0, 0, 126, 0, 121, 221, 0, 129, 206, 50, 0, 56, 21, 14, 123, 191, 245, 65, 60, 62, 29, 227, 67, 188, 0, 0, 130, 0, 124, 230, 0, 129, 21, 52, 0, 0, 50, 72, 147, 191, 134, 113, 89, 62, 206, 6, 211, 58, 221, 135, 0, 0, 121, 221, 0, 129, 206, 50, 0, 52, 50, 210, 123, 191, 62, 86, 47, 62, 105, 169, 42, 58, 229, 132, 0, 0, 124, 229, 0, 129, 21, 52, 0, 52, 160, 210, 146, 191, 13, 56, 102, 62, 127, 45, 52, 188, 0, 0, 130, 0, 121, 221, 0, 129, 206, 50, 0, 0, 50, 72, 147, 191, 134, 113, 89, 62, 206, 6, 211, 58, 221, 135, 0, 0, 121, 221, 0, 129, 206, 50, 0, 52, 21, 14, 123, 191, 245, 65, 60, 62, 29, 227, 67, 188, 0, 0, 130, 0, 124, 230, 0, 129, 21, 52, 0, 0, 1, 85, 122, 191, 171, 116, 72, 62, 224, 169, 42, 58, 26, 124, 0, 0, 124, 230, 0, 129, 21, 52, 0, 58, 160, 210, 146, 191, 13, 56, 102, 62, 127, 45, 52, 188, 0, 0, 130, 0, 121, 221, 0, 129, 206, 50, 0, 60, 21, 14, 123, 191, 245, 65, 60, 62, 29, 227, 67, 188, 0, 0, 130, 0, 124, 229, 0, 129, 21, 52, 0, 60, 233, 99, 146, 191, 229, 64, 114, 62, 1, 7, 211, 58, 35, 121, 0, 0, 121, 221, 0, 129, 206, 50, 0, 58, 160, 210, 146, 191, 13, 56, 102, 62, 127, 45, 52, 188, 0, 0, 130, 0, 121, 221, 0, 129, 206, 50, 0, 60, 1, 85, 122, 191, 171, 116, 72, 62, 224, 169, 42, 58, 26, 124, 0, 0, 124, 230, 0, 129, 21, 52, 0, 58, 160, 210, 146, 191, 14, 56, 102, 62, 57, 239, 104, 60, 0, 0, 126, 0, 121, 221, 0, 129, 206, 50, 0, 56, 1, 85, 122, 191, 171, 116, 72, 62, 224, 169, 42, 58, 26, 124, 0, 0, 124, 230, 0, 129, 21, 52, 0, 58, 21, 14, 123, 191, 245, 65, 60, 62, 83, 56, 89, 60, 0, 0, 126, 0, 124, 229, 0, 129, 21, 52, 0, 56, 160, 210, 146, 191, 14, 56, 102, 62, 57, 239, 104, 60, 0, 0, 126, 0, 121, 221, 0, 129, 206, 50, 0, 56, 233, 99, 146, 191, 229, 64, 114, 62, 1, 7, 211, 58, 35, 121, 0, 0, 121, 221, 0, 129, 206, 50, 0, 58, 1, 85, 122, 191, 171, 116, 72, 62, 224, 169, 42, 58, 26, 124, 0, 0, 124, 230, 0, 129, 21, 52, 0, 58, 50, 72, 147, 191, 134, 113, 89, 62, 206, 6, 211, 58, 221, 135, 0, 0, 121, 221, 0, 129, 206, 50, 0, 52, 21, 14, 123, 191, 245, 65, 60, 62, 83, 56, 89, 60, 0, 0, 126, 0, 124, 229, 0, 129, 21, 52, 0, 56, 50, 210, 123, 191, 62, 86, 47, 62, 105, 169, 42, 58, 229, 132, 0, 0, 124, 229, 0, 129, 21, 52, 0, 52, 50, 72, 147, 191, 134, 113, 89, 62, 206, 6, 211, 58, 221, 135, 0, 0, 121, 221, 0, 129, 206, 50, 0, 52, 160, 210, 146, 191, 14, 56, 102, 62, 57, 239, 104, 60, 0, 0, 126, 0, 121, 221, 0, 129, 206, 50, 0, 56, 21, 14, 123, 191, 245, 65, 60, 62, 83, 56, 89, 60, 0, 0, 126, 0, 124, 229, 0, 129, 21, 52, 0, 56, 66, 246, 78, 191, 228, 230, 26, 62, 68, 141, 78, 188, 0, 0, 130, 0, 125, 235, 0, 129, 196, 52, 0, 0, 50, 210, 123, 191, 62, 86, 47, 62, 105, 169, 42, 58, 229, 132, 0, 0, 124, 229, 0, 129, 21, 52, 0, 52, 106, 148, 79, 191, 3, 222, 13, 62, 201, 240, 165, 177, 235, 131, 0, 0, 125, 235, 0, 129, 196, 52, 0, 52, 21, 14, 123, 191, 245, 65, 60, 62, 29, 227, 67, 188, 0, 0, 130, 0, 124, 230, 0, 129, 21, 52, 0, 0, 50, 210, 123, 191, 62, 86, 47, 62, 105, 169, 42, 58, 229, 132, 0, 0, 124, 229, 0, 129, 21, 52, 0, 52, 66, 246, 78, 191, 228, 230, 26, 62, 68, 141, 78, 188, 0, 0, 130, 0, 125, 235, 0, 129, 196, 52, 0, 0, 183, 96, 78, 191, 30, 59, 39, 62, 106, 150, 166, 49, 21, 125, 0, 0, 125, 235, 0, 129, 196, 52, 0, 58, 21, 14, 123, 191, 245, 65, 60, 62, 29, 227, 67, 188, 0, 0, 130, 0, 124, 229, 0, 129, 21, 52, 0, 60, 66, 246, 78, 191, 228, 230, 26, 62, 68, 141, 78, 188, 0, 0, 130, 0, 125, 235, 0, 129, 196, 52, 0, 60, 1, 85, 122, 191, 171, 116, 72, 62, 224, 169, 42, 58, 26, 124, 0, 0, 124, 230, 0, 129, 21, 52, 0, 58, 21, 14, 123, 191, 245, 65, 60, 62, 29, 227, 67, 188, 0, 0, 130, 0, 124, 229, 0, 129, 21, 52, 0, 60, 183, 96, 78, 191, 30, 59, 39, 62, 106, 150, 166, 49, 21, 125, 0, 0, 125, 235, 0, 129, 196, 52, 0, 58, 21, 14, 123, 191, 245, 65, 60, 62, 83, 56, 89, 60, 0, 0, 126, 0, 124, 229, 0, 129, 21, 52, 0, 56, 183, 96, 78, 191, 30, 59, 39, 62, 106, 150, 166, 49, 21, 125, 0, 0, 125, 235, 0, 129, 196, 52, 0, 58, 66, 246, 78, 191, 229, 230, 26, 62, 68, 141, 78, 60, 0, 0, 126, 0, 125, 235, 0, 129, 196, 52, 0, 56, 21, 14, 123, 191, 245, 65, 60, 62, 83, 56, 89, 60, 0, 0, 126, 0, 124, 229, 0, 129, 21, 52, 0, 56, 1, 85, 122, 191, 171, 116, 72, 62, 224, 169, 42, 58, 26, 124, 0, 0, 124, 230, 0, 129, 21, 52, 0, 58, 183, 96, 78, 191, 30, 59, 39, 62, 106, 150, 166, 49, 21, 125, 0, 0, 125, 235, 0, 129, 196, 52, 0, 58, 50, 210, 123, 191, 62, 86, 47, 62, 105, 169, 42, 58, 229, 132, 0, 0, 124, 229, 0, 129, 21, 52, 0, 52, 66, 246, 78, 191, 229, 230, 26, 62, 68, 141, 78, 60, 0, 0, 126, 0, 125, 235, 0, 129, 196, 52, 0, 56, 106, 148, 79, 191, 3, 222, 13, 62, 201, 240, 165, 177, 235, 131, 0, 0, 125, 235, 0, 129, 196, 52, 0, 52, 50, 210, 123, 191, 62, 86, 47, 62, 105, 169, 42, 58, 229, 132, 0, 0, 124, 229, 0, 129, 21, 52, 0, 52, 21, 14, 123, 191, 245, 65, 60, 62, 83, 56, 89, 60, 0, 0, 126, 0, 124, 229, 0, 129, 21, 52, 0, 56, 66, 246, 78, 191, 229, 230, 26, 62, 68, 141, 78, 60, 0, 0, 126, 0, 125, 235, 0, 129, 196, 52, 0, 56, 74, 100, 35, 191, 240, 170, 255, 61, 220, 140, 78, 188, 0, 0, 130, 0, 125, 239, 0, 129, 114, 53, 0, 0, 106, 148, 79, 191, 3, 222, 13, 62, 201, 240, 165, 177, 235, 131, 0, 0, 125, 235, 0, 129, 196, 52, 0, 52, 111, 221, 35, 191, 200, 108, 229, 61, 140, 112, 162, 176, 239, 131, 0, 0, 125, 239, 0, 129, 114, 53, 0, 52, 66, 246, 78, 191, 228, 230, 26, 62, 68, 141, 78, 188, 0, 0, 130, 0, 125, 235, 0, 129, 196, 52, 0, 0, 106, 148, 79, 191, 3, 222, 13, 62, 201, 240, 165, 177, 235, 131, 0, 0, 125, 235, 0, 129, 196, 52, 0, 52, 74, 100, 35, 191, 240, 170, 255, 61, 220, 140, 78, 188, 0, 0, 130, 0, 125, 239, 0, 129, 114, 53, 0, 0, 146, 241, 34, 191, 110, 67, 12, 62, 72, 131, 172, 48, 17, 125, 0, 0, 125, 239, 0, 129, 114, 53, 0, 58, 66, 246, 78, 191, 228, 230, 26, 62, 68, 141, 78, 188, 0, 0, 130, 0, 125, 235, 0, 129, 196, 52, 0, 60, 74, 100, 35, 191, 240, 170, 255, 61, 220, 140, 78, 188, 0, 0, 130, 0, 125, 239, 0, 129, 114, 53, 0, 60, 183, 96, 78, 191, 30, 59, 39, 62, 106, 150, 166, 49, 21, 125, 0, 0, 125, 235, 0, 129, 196, 52, 0, 58, 66, 246, 78, 191, 228, 230, 26, 62, 68, 141, 78, 188, 0, 0, 130, 0, 125, 235, 0, 129, 196, 52, 0, 60, 146, 241, 34, 191, 110, 67, 12, 62, 72, 131, 172, 48, 17, 125, 0, 0, 125, 239, 0, 129, 114, 53, 0, 58, 66, 246, 78, 191, 229, 230, 26, 62, 68, 141, 78, 60, 0, 0, 126, 0, 125, 235, 0, 129, 196, 52, 0, 56, 146, 241, 34, 191, 110, 67, 12, 62, 72, 131, 172, 48, 17, 125, 0, 0, 125, 239, 0, 129, 114, 53, 0, 58, 74, 100, 35, 191, 240, 170, 255, 61, 220, 140, 78, 60, 0, 0, 126, 0, 125, 239, 0, 129, 114, 53, 0, 56, 66, 246, 78, 191, 229, 230, 26, 62, 68, 141, 78, 60, 0, 0, 126, 0, 125, 235, 0, 129, 196, 52, 0, 56, 183, 96, 78, 191, 30, 59, 39, 62, 106, 150, 166, 49, 21, 125, 0, 0, 125, 235, 0, 129, 196, 52, 0, 58, 146, 241, 34, 191, 110, 67, 12, 62, 72, 131, 172, 48, 17, 125, 0, 0, 125, 239, 0, 129, 114, 53, 0, 58, 106, 148, 79, 191, 3, 222, 13, 62, 201, 240, 165, 177, 235, 131, 0, 0, 125, 235, 0, 129, 196, 52, 0, 52, 74, 100, 35, 191, 240, 170, 255, 61, 220, 140, 78, 60, 0, 0, 126, 0, 125, 239, 0, 129, 114, 53, 0, 56, 111, 221, 35, 191, 200, 108, 229, 61, 140, 112, 162, 176, 239, 131, 0, 0, 125, 239, 0, 129, 114, 53, 0, 52, 106, 148, 79, 191, 3, 222, 13, 62, 201, 240, 165, 177, 235, 131, 0, 0, 125, 235, 0, 129, 196, 52, 0, 52, 66, 246, 78, 191, 229, 230, 26, 62, 68, 141, 78, 60, 0, 0, 126, 0, 125, 235, 0, 129, 196, 52, 0, 56, 74, 100, 35, 191, 240, 170, 255, 61, 220, 140, 78, 60, 0, 0, 126, 0, 125, 239, 0, 129, 114, 53, 0, 56, 118, 164, 239, 190, 233, 238, 212, 61, 152, 140, 78, 188, 0, 0, 130, 0, 126, 244, 0, 129, 32, 54, 0, 0, 111, 221, 35, 191, 200, 108, 229, 61, 140, 112, 162, 176, 239, 131, 0, 0, 125, 239, 0, 129, 114, 53, 0, 52, 36, 78, 240, 190, 152, 144, 186, 61, 160, 117, 241, 48, 244, 130, 0, 0, 126, 244, 0, 129, 32, 54, 0, 52, 74, 100, 35, 191, 240, 170, 255, 61, 220, 140, 78, 188, 0, 0, 130, 0, 125, 239, 0, 129, 114, 53, 0, 0, 111, 221, 35, 191, 200, 108, 229, 61, 140, 112, 162, 176, 239, 131, 0, 0, 125, 239, 0, 129, 114, 53, 0, 52, 118, 164, 239, 190, 233, 238, 212, 61, 152, 140, 78, 188, 0, 0, 130, 0, 126, 244, 0, 129, 32, 54, 0, 0, 155, 3, 239, 190, 194, 239, 237, 61, 112, 20, 128, 47, 12, 126, 0, 0, 126, 244, 0, 129, 32, 54, 0, 58, 74, 100, 35, 191, 240, 170, 255, 61, 220, 140, 78, 188, 0, 0, 130, 0, 125, 239, 0, 129, 114, 53, 0, 60, 118, 164, 239, 190, 233, 238, 212, 61, 152, 140, 78, 188, 0, 0, 130, 0, 126, 244, 0, 129, 32, 54, 0, 60, 146, 241, 34, 191, 110, 67, 12, 62, 72, 131, 172, 48, 17, 125, 0, 0, 125, 239, 0, 129, 114, 53, 0, 58, 74, 100, 35, 191, 240, 170, 255, 61, 220, 140, 78, 188, 0, 0, 130, 0, 125, 239, 0, 129, 114, 53, 0, 60, 155, 3, 239, 190, 194, 239, 237, 61, 112, 20, 128, 47, 12, 126, 0, 0, 126, 244, 0, 129, 32, 54, 0, 58, 74, 100, 35, 191, 240, 170, 255, 61, 220, 140, 78, 60, 0, 0, 126, 0, 125, 239, 0, 129, 114, 53, 0, 56, 155, 3, 239, 190, 194, 239, 237, 61, 112, 20, 128, 47, 12, 126, 0, 0, 126, 244, 0, 129, 32, 54, 0, 58, 118, 164, 239, 190, 233, 238, 212, 61, 152, 140, 78, 60, 0, 0, 126, 0, 126, 244, 0, 129, 32, 54, 0, 56, 74, 100, 35, 191, 240, 170, 255, 61, 220, 140, 78, 60, 0, 0, 126, 0, 125, 239, 0, 129, 114, 53, 0, 56, 146, 241, 34, 191, 110, 67, 12, 62, 72, 131, 172, 48, 17, 125, 0, 0, 125, 239, 0, 129, 114, 53, 0, 58, 155, 3, 239, 190, 194, 239, 237, 61, 112, 20, 128, 47, 12, 126, 0, 0, 126, 244, 0, 129, 32, 54, 0, 58, 111, 221, 35, 191, 200, 108, 229, 61, 140, 112, 162, 176, 239, 131, 0, 0, 125, 239, 0, 129, 114, 53, 0, 52, 118, 164, 239, 190, 233, 238, 212, 61, 152, 140, 78, 60, 0, 0, 126, 0, 126, 244, 0, 129, 32, 54, 0, 56, 36, 78, 240, 190, 152, 144, 186, 61, 160, 117, 241, 48, 244, 130, 0, 0, 126, 244, 0, 129, 32, 54, 0, 52, 111, 221, 35, 191, 200, 108, 229, 61, 140, 112, 162, 176, 239, 131, 0, 0, 125, 239, 0, 129, 114, 53, 0, 52, 74, 100, 35, 191, 240, 170, 255, 61, 220, 140, 78, 60, 0, 0, 126, 0, 125, 239, 0, 129, 114, 53, 0, 56, 118, 164, 239, 190, 233, 238, 212, 61, 152, 140, 78, 60, 0, 0, 126, 0, 126, 244, 0, 129, 32, 54, 0, 56, 58, 128, 152, 190, 148, 76, 185, 61, 124, 140, 78, 188, 0, 0, 130, 0, 126, 249, 0, 129, 206, 54, 0, 0, 36, 78, 240, 190, 152, 144, 186, 61, 160, 117, 241, 48, 244, 130, 0, 0, 126, 244, 0, 129, 32, 54, 0, 52, 32, 226, 152, 190, 28, 217, 158, 61, 8, 27, 96, 48, 249, 130, 0, 0, 126, 249, 0, 129, 206, 54, 0, 52, 118, 164, 239, 190, 233, 238, 212, 61, 152, 140, 78, 188, 0, 0, 130, 0, 126, 244, 0, 129, 32, 54, 0, 0, 36, 78, 240, 190, 152, 144, 186, 61, 160, 117, 241, 48, 244, 130, 0, 0, 126, 244, 0, 129, 32, 54, 0, 52, 58, 128, 152, 190, 148, 76, 185, 61, 124, 140, 78, 188, 0, 0, 130, 0, 126, 249, 0, 129, 206, 54, 0, 0, 94, 35, 152, 190, 132, 100, 210, 61, 128, 167, 127, 47, 7, 126, 0, 0, 126, 249, 0, 129, 206, 54, 0, 58, 118, 164, 239, 190, 233, 238, 212, 61, 152, 140, 78, 188, 0, 0, 130, 0, 126, 244, 0, 129, 32, 54, 0, 60, 58, 128, 152, 190, 148, 76, 185, 61, 124, 140, 78, 188, 0, 0, 130, 0, 126, 249, 0, 129, 206, 54, 0, 60, 155, 3, 239, 190, 194, 239, 237, 61, 112, 20, 128, 47, 12, 126, 0, 0, 126, 244, 0, 129, 32, 54, 0, 58, 118, 164, 239, 190, 233, 238, 212, 61, 152, 140, 78, 188, 0, 0, 130, 0, 126, 244, 0, 129, 32, 54, 0, 60, 94, 35, 152, 190, 132, 100, 210, 61, 128, 167, 127, 47, 7, 126, 0, 0, 126, 249, 0, 129, 206, 54, 0, 58, 118, 164, 239, 190, 233, 238, 212, 61, 152, 140, 78, 60, 0, 0, 126, 0, 126, 244, 0, 129, 32, 54, 0, 56, 94, 35, 152, 190, 132, 100, 210, 61, 128, 167, 127, 47, 7, 126, 0, 0, 126, 249, 0, 129, 206, 54, 0, 58, 58, 128, 152, 190, 148, 76, 185, 61, 124, 140, 78, 60, 0, 0, 126, 0, 126, 249, 0, 129, 206, 54, 0, 56, 118, 164, 239, 190, 233, 238, 212, 61, 152, 140, 78, 60, 0, 0, 126, 0, 126, 244, 0, 129, 32, 54, 0, 56, 155, 3, 239, 190, 194, 239, 237, 61, 112, 20, 128, 47, 12, 126, 0, 0, 126, 244, 0, 129, 32, 54, 0, 58, 94, 35, 152, 190, 132, 100, 210, 61, 128, 167, 127, 47, 7, 126, 0, 0, 126, 249, 0, 129, 206, 54, 0, 58, 36, 78, 240, 190, 152, 144, 186, 61, 160, 117, 241, 48, 244, 130, 0, 0, 126, 244, 0, 129, 32, 54, 0, 52, 58, 128, 152, 190, 148, 76, 185, 61, 124, 140, 78, 60, 0, 0, 126, 0, 126, 249, 0, 129, 206, 54, 0, 56, 32, 226, 152, 190, 28, 217, 158, 61, 8, 27, 96, 48, 249, 130, 0, 0, 126, 249, 0, 129, 206, 54, 0, 52, 36, 78, 240, 190, 152, 144, 186, 61, 160, 117, 241, 48, 244, 130, 0, 0, 126, 244, 0, 129, 32, 54, 0, 52, 118, 164, 239, 190, 233, 238, 212, 61, 152, 140, 78, 60, 0, 0, 126, 0, 126, 244, 0, 129, 32, 54, 0, 56, 58, 128, 152, 190, 148, 76, 185, 61, 124, 140, 78, 60, 0, 0, 126, 0, 126, 249, 0, 129, 206, 54, 0, 56, 229, 183, 2, 190, 198, 135, 172, 61, 124, 140, 78, 188, 0, 0, 130, 0, 126, 255, 0, 129, 125, 55, 0, 0, 32, 226, 152, 190, 28, 217, 158, 61, 8, 27, 96, 48, 249, 130, 0, 0, 126, 249, 0, 129, 206, 54, 0, 52, 98, 236, 2, 190, 122, 9, 146, 61, 196, 93, 209, 48, 255, 130, 0, 0, 126, 255, 0, 129, 125, 55, 0, 52, 229, 183, 2, 190, 198, 135, 172, 61, 124, 140, 78, 188, 0, 0, 130, 0, 126, 255, 0, 129, 125, 55, 0, 0, 58, 128, 152, 190, 148, 76, 185, 61, 124, 140, 78, 188, 0, 0, 130, 0, 126, 249, 0, 129, 206, 54, 0, 0, 32, 226, 152, 190, 28, 217, 158, 61, 8, 27, 96, 48, 249, 130, 0, 0, 126, 249, 0, 129, 206, 54, 0, 52, 17, 134, 2, 190, 90, 169, 197, 61, 254, 192, 32, 177, 1, 126, 0, 0, 126, 255, 0, 129, 125, 55, 0, 58, 58, 128, 152, 190, 148, 76, 185, 61, 124, 140, 78, 188, 0, 0, 130, 0, 126, 249, 0, 129, 206, 54, 0, 60, 229, 183, 2, 190, 198, 135, 172, 61, 124, 140, 78, 188, 0, 0, 130, 0, 126, 255, 0, 129, 125, 55, 0, 60, 17, 134, 2, 190, 90, 169, 197, 61, 254, 192, 32, 177, 1, 126, 0, 0, 126, 255, 0, 129, 125, 55, 0, 58, 94, 35, 152, 190, 132, 100, 210, 61, 128, 167, 127, 47, 7, 126, 0, 0, 126, 249, 0, 129, 206, 54, 0, 58, 58, 128, 152, 190, 148, 76, 185, 61, 124, 140, 78, 188, 0, 0, 130, 0, 126, 249, 0, 129, 206, 54, 0, 60, 58, 128, 152, 190, 148, 76, 185, 61, 124, 140, 78, 60, 0, 0, 126, 0, 126, 249, 0, 129, 206, 54, 0, 56, 17, 134, 2, 190, 90, 169, 197, 61, 254, 192, 32, 177, 1, 126, 0, 0, 126, 255, 0, 129, 125, 55, 0, 58, 229, 183, 2, 190, 197, 135, 172, 61, 124, 140, 78, 60, 0, 0, 126, 0, 126, 255, 0, 129, 125, 55, 0, 56, 94, 35, 152, 190, 132, 100, 210, 61, 128, 167, 127, 47, 7, 126, 0, 0, 126, 249, 0, 129, 206, 54, 0, 58, 17, 134, 2, 190, 90, 169, 197, 61, 254, 192, 32, 177, 1, 126, 0, 0, 126, 255, 0, 129, 125, 55, 0, 58, 58, 128, 152, 190, 148, 76, 185, 61, 124, 140, 78, 60, 0, 0, 126, 0, 126, 249, 0, 129, 206, 54, 0, 56, 32, 226, 152, 190, 28, 217, 158, 61, 8, 27, 96, 48, 249, 130, 0, 0, 126, 249, 0, 129, 206, 54, 0, 52, 229, 183, 2, 190, 197, 135, 172, 61, 124, 140, 78, 60, 0, 0, 126, 0, 126, 255, 0, 129, 125, 55, 0, 56, 98, 236, 2, 190, 122, 9, 146, 61, 196, 93, 209, 48, 255, 130, 0, 0, 126, 255, 0, 129, 125, 55, 0, 52, 58, 128, 152, 190, 148, 76, 185, 61, 124, 140, 78, 60, 0, 0, 126, 0, 126, 249, 0, 129, 206, 54, 0, 56, 229, 183, 2, 190, 197, 135, 172, 61, 124, 140, 78, 60, 0, 0, 126, 0, 126, 255, 0, 129, 125, 55, 0, 56, 32, 226, 152, 190, 28, 217, 158, 61, 8, 27, 96, 48, 249, 130, 0, 0, 126, 249, 0, 129, 206, 54, 0, 52, 126, 178, 47, 61, 203, 28, 148, 61, 156, 123, 146, 176, 3, 130, 0, 0, 126, 3, 0, 129, 21, 56, 0, 52, 229, 183, 2, 190, 198, 135, 172, 61, 124, 140, 78, 188, 0, 0, 130, 0, 126, 255, 0, 129, 125, 55, 0, 0, 98, 236, 2, 190, 122, 9, 146, 61, 196, 93, 209, 48, 255, 130, 0, 0, 126, 255, 0, 129, 125, 55, 0, 52, 115, 66, 46, 61, 163, 155, 174, 61, 180, 140, 78, 188, 0, 0, 130, 0, 126, 3, 0, 129, 21, 56, 0, 0, 229, 183, 2, 190, 198, 135, 172, 61, 124, 140, 78, 188, 0, 0, 130, 0, 126, 255, 0, 129, 125, 55, 0, 0, 126, 178, 47, 61, 203, 28, 148, 61, 156, 123, 146, 176, 3, 130, 0, 0, 126, 3, 0, 129, 21, 56, 0, 52, 115, 66, 46, 61, 163, 155, 174, 61, 180, 140, 78, 188, 0, 0, 130, 0, 126, 3, 0, 129, 21, 56, 0, 60, 17, 134, 2, 190, 90, 169, 197, 61, 254, 192, 32, 177, 1, 126, 0, 0, 126, 255, 0, 129, 125, 55, 0, 58, 229, 183, 2, 190, 198, 135, 172, 61, 124, 140, 78, 188, 0, 0, 130, 0, 126, 255, 0, 129, 125, 55, 0, 60, 249, 229, 44, 61, 102, 185, 199, 61, 200, 147, 61, 176, 253, 126, 0, 0, 126, 3, 0, 129, 21, 56, 0, 58, 17, 134, 2, 190, 90, 169, 197, 61, 254, 192, 32, 177, 1, 126, 0, 0, 126, 255, 0, 129, 125, 55, 0, 58, 115, 66, 46, 61, 163, 155, 174, 61, 180, 140, 78, 188, 0, 0, 130, 0, 126, 3, 0, 129, 21, 56, 0, 60, 17, 134, 2, 190, 90, 169, 197, 61, 254, 192, 32, 177, 1, 126, 0, 0, 126, 255, 0, 129, 125, 55, 0, 58, 119, 66, 46, 61, 162, 155, 174, 61, 176, 140, 78, 60, 0, 0, 126, 0, 126, 3, 0, 129, 21, 56, 0, 56, 229, 183, 2, 190, 197, 135, 172, 61, 124, 140, 78, 60, 0, 0, 126, 0, 126, 255, 0, 129, 125, 55, 0, 56, 17, 134, 2, 190, 90, 169, 197, 61, 254, 192, 32, 177, 1, 126, 0, 0, 126, 255, 0, 129, 125, 55, 0, 58, 249, 229, 44, 61, 102, 185, 199, 61, 200, 147, 61, 176, 253, 126, 0, 0, 126, 3, 0, 129, 21, 56, 0, 58, 119, 66, 46, 61, 162, 155, 174, 61, 176, 140, 78, 60, 0, 0, 126, 0, 126, 3, 0, 129, 21, 56, 0, 56, 229, 183, 2, 190, 197, 135, 172, 61, 124, 140, 78, 60, 0, 0, 126, 0, 126, 255, 0, 129, 125, 55, 0, 56, 126, 178, 47, 61, 203, 28, 148, 61, 156, 123, 146, 176, 3, 130, 0, 0, 126, 3, 0, 129, 21, 56, 0, 52, 98, 236, 2, 190, 122, 9, 146, 61, 196, 93, 209, 48, 255, 130, 0, 0, 126, 255, 0, 129, 125, 55, 0, 52, 229, 183, 2, 190, 197, 135, 172, 61, 124, 140, 78, 60, 0, 0, 126, 0, 126, 255, 0, 129, 125, 55, 0, 56, 119, 66, 46, 61, 162, 155, 174, 61, 176, 140, 78, 60, 0, 0, 126, 0, 126, 3, 0, 129, 21, 56, 0, 56, 126, 178, 47, 61, 203, 28, 148, 61, 156, 123, 146, 176, 3, 130, 0, 0, 126, 3, 0, 129, 21, 56, 0, 52, 4, 200, 90, 62, 32, 70, 165, 61, 232, 209, 1, 177, 9, 130, 0, 0, 126, 9, 0, 129, 108, 56, 0, 52, 115, 66, 46, 61, 163, 155, 174, 61, 180, 140, 78, 188, 0, 0, 130, 0, 126, 3, 0, 129, 21, 56, 0, 0, 126, 178, 47, 61, 203, 28, 148, 61, 156, 123, 146, 176, 3, 130, 0, 0, 126, 3, 0, 129, 21, 56, 0, 52, 225, 216, 89, 62, 173, 186, 191, 61, 252, 140, 78, 188, 0, 0, 130, 0, 126, 9, 0, 129, 108, 56, 0, 0, 115, 66, 46, 61, 163, 155, 174, 61, 180, 140, 78, 188, 0, 0, 130, 0, 126, 3, 0, 129, 21, 56, 0, 0, 4, 200, 90, 62, 32, 70, 165, 61, 232, 209, 1, 177, 9, 130, 0, 0, 126, 9, 0, 129, 108, 56, 0, 52, 225, 216, 89, 62, 173, 186, 191, 61, 252, 140, 78, 188, 0, 0, 130, 0, 126, 9, 0, 129, 108, 56, 0, 60, 249, 229, 44, 61, 102, 185, 199, 61, 200, 147, 61, 176, 253, 126, 0, 0, 126, 3, 0, 129, 21, 56, 0, 58, 115, 66, 46, 61, 163, 155, 174, 61, 180, 140, 78, 188, 0, 0, 130, 0, 126, 3, 0, 129, 21, 56, 0, 60, 161, 246, 88, 62, 198, 198, 216, 61, 36, 150, 71, 49, 247, 126, 0, 0, 126, 9, 0, 129, 108, 56, 0, 58, 249, 229, 44, 61, 102, 185, 199, 61, 200, 147, 61, 176, 253, 126, 0, 0, 126, 3, 0, 129, 21, 56, 0, 58, 225, 216, 89, 62, 173, 186, 191, 61, 252, 140, 78, 188, 0, 0, 130, 0, 126, 9, 0, 129, 108, 56, 0, 60, 249, 229, 44, 61, 102, 185, 199, 61, 200, 147, 61, 176, 253, 126, 0, 0, 126, 3, 0, 129, 21, 56, 0, 58, 225, 216, 89, 62, 172, 186, 191, 61, 252, 140, 78, 60, 0, 0, 126, 0, 126, 9, 0, 129, 108, 56, 0, 56, 119, 66, 46, 61, 162, 155, 174, 61, 176, 140, 78, 60, 0, 0, 126, 0, 126, 3, 0, 129, 21, 56, 0, 56, 249, 229, 44, 61, 102, 185, 199, 61, 200, 147, 61, 176, 253, 126, 0, 0, 126, 3, 0, 129, 21, 56, 0, 58, 161, 246, 88, 62, 198, 198, 216, 61, 36, 150, 71, 49, 247, 126, 0, 0, 126, 9, 0, 129, 108, 56, 0, 58, 225, 216, 89, 62, 172, 186, 191, 61, 252, 140, 78, 60, 0, 0, 126, 0, 126, 9, 0, 129, 108, 56, 0, 56, 119, 66, 46, 61, 162, 155, 174, 61, 176, 140, 78, 60, 0, 0, 126, 0, 126, 3, 0, 129, 21, 56, 0, 56, 4, 200, 90, 62, 32, 70, 165, 61, 232, 209, 1, 177, 9, 130, 0, 0, 126, 9, 0, 129, 108, 56, 0, 52, 126, 178, 47, 61, 203, 28, 148, 61, 156, 123, 146, 176, 3, 130, 0, 0, 126, 3, 0, 129, 21, 56, 0, 52, 119, 66, 46, 61, 162, 155, 174, 61, 176, 140, 78, 60, 0, 0, 126, 0, 126, 3, 0, 129, 21, 56, 0, 56, 225, 216, 89, 62, 172, 186, 191, 61, 252, 140, 78, 60, 0, 0, 126, 0, 126, 9, 0, 129, 108, 56, 0, 56, 4, 200, 90, 62, 32, 70, 165, 61, 232, 209, 1, 177, 9, 130, 0, 0, 126, 9, 0, 129, 108, 56, 0, 52, 124, 211, 196, 62, 111, 240, 197, 61, 144, 106, 66, 177, 14, 130, 0, 0, 126, 14, 0, 129, 196, 56, 0, 52, 225, 216, 89, 62, 173, 186, 191, 61, 252, 140, 78, 188, 0, 0, 130, 0, 126, 9, 0, 129, 108, 56, 0, 0, 4, 200, 90, 62, 32, 70, 165, 61, 232, 209, 1, 177, 9, 130, 0, 0, 126, 9, 0, 129, 108, 56, 0, 52, 124, 211, 196, 62, 111, 240, 197, 61, 144, 106, 66, 177, 14, 130, 0, 0, 126, 14, 0, 129, 196, 56, 0, 52, 96, 16, 196, 62, 174, 78, 224, 61, 116, 141, 78, 188, 0, 0, 130, 0, 126, 14, 0, 129, 196, 56, 0, 0, 225, 216, 89, 62, 173, 186, 191, 61, 252, 140, 78, 188, 0, 0, 130, 0, 126, 9, 0, 129, 108, 56, 0, 0, 96, 16, 196, 62, 174, 78, 224, 61, 116, 141, 78, 188, 0, 0, 130, 0, 126, 14, 0, 129, 196, 56, 0, 60, 161, 246, 88, 62, 198, 198, 216, 61, 36, 150, 71, 49, 247, 126, 0, 0, 126, 9, 0, 129, 108, 56, 0, 58, 225, 216, 89, 62, 173, 186, 191, 61, 252, 140, 78, 188, 0, 0, 130, 0, 126, 9, 0, 129, 108, 56, 0, 60, 96, 16, 196, 62, 174, 78, 224, 61, 116, 141, 78, 188, 0, 0, 130, 0, 126, 14, 0, 129, 196, 56, 0, 60, 22, 88, 195, 62, 122, 58, 249, 61, 26, 170, 71, 49, 242, 126, 0, 0, 126, 14, 0, 129, 196, 56, 0, 58, 161, 246, 88, 62, 198, 198, 216, 61, 36, 150, 71, 49, 247, 126, 0, 0, 126, 9, 0, 129, 108, 56, 0, 58, 161, 246, 88, 62, 198, 198, 216, 61, 36, 150, 71, 49, 247, 126, 0, 0, 126, 9, 0, 129, 108, 56, 0, 58, 96, 16, 196, 62, 174, 78, 224, 61, 116, 141, 78, 60, 0, 0, 126, 0, 126, 14, 0, 129, 196, 56, 0, 56, 225, 216, 89, 62, 172, 186, 191, 61, 252, 140, 78, 60, 0, 0, 126, 0, 126, 9, 0, 129, 108, 56, 0, 56, 22, 88, 195, 62, 122, 58, 249, 61, 26, 170, 71, 49, 242, 126, 0, 0, 126, 14, 0, 129, 196, 56, 0, 58, 96, 16, 196, 62, 174, 78, 224, 61, 116, 141, 78, 60, 0, 0, 126, 0, 126, 14, 0, 129, 196, 56, 0, 56, 161, 246, 88, 62, 198, 198, 216, 61, 36, 150, 71, 49, 247, 126, 0, 0, 126, 9, 0, 129, 108, 56, 0, 58, 225, 216, 89, 62, 172, 186, 191, 61, 252, 140, 78, 60, 0, 0, 126, 0, 126, 9, 0, 129, 108, 56, 0, 56, 124, 211, 196, 62, 111, 240, 197, 61, 144, 106, 66, 177, 14, 130, 0, 0, 126, 14, 0, 129, 196, 56, 0, 52, 4, 200, 90, 62, 32, 70, 165, 61, 232, 209, 1, 177, 9, 130, 0, 0, 126, 9, 0, 129, 108, 56, 0, 52, 96, 16, 196, 62, 174, 78, 224, 61, 116, 141, 78, 60, 0, 0, 126, 0, 126, 14, 0, 129, 196, 56, 0, 56, 124, 211, 196, 62, 111, 240, 197, 61, 144, 106, 66, 177, 14, 130, 0, 0, 126, 14, 0, 129, 196, 56, 0, 52, 225, 216, 89, 62, 172, 186, 191, 61, 252, 140, 78, 60, 0, 0, 126, 0, 126, 9, 0, 129, 108, 56, 0, 56, 158, 34, 14, 63, 158, 190, 246, 61, 157, 98, 74, 177, 20, 131, 0, 0, 125, 20, 0, 129, 27, 57, 0, 52, 96, 16, 196, 62, 174, 78, 224, 61, 116, 141, 78, 188, 0, 0, 130, 0, 126, 14, 0, 129, 196, 56, 0, 0, 124, 211, 196, 62, 111, 240, 197, 61, 144, 106, 66, 177, 14, 130, 0, 0, 126, 14, 0, 129, 196, 56, 0, 52, 158, 34, 14, 63, 158, 190, 246, 61, 157, 98, 74, 177, 20, 131, 0, 0, 125, 20, 0, 129, 27, 57, 0, 52, 8, 154, 13, 63, 100, 124, 8, 62, 16, 142, 78, 188, 0, 0, 130, 0, 125, 20, 0, 129, 27, 57, 0, 0, 96, 16, 196, 62, 174, 78, 224, 61, 116, 141, 78, 188, 0, 0, 130, 0, 126, 14, 0, 129, 196, 56, 0, 0, 8, 154, 13, 63, 100, 124, 8, 62, 16, 142, 78, 188, 0, 0, 130, 0, 125, 20, 0, 129, 27, 57, 0, 60, 22, 88, 195, 62, 122, 58, 249, 61, 26, 170, 71, 49, 242, 126, 0, 0, 126, 14, 0, 129, 196, 56, 0, 58, 96, 16, 196, 62, 174, 78, 224, 61, 116, 141, 78, 188, 0, 0, 130, 0, 126, 14, 0, 129, 196, 56, 0, 60, 8, 154, 13, 63, 100, 124, 8, 62, 16, 142, 78, 188, 0, 0, 130, 0, 125, 20, 0, 129, 27, 57, 0, 60, 75, 25, 13, 63, 68, 218, 20, 62, 218, 27, 15, 49, 236, 125, 0, 0, 125, 20, 0, 129, 27, 57, 0, 58, 22, 88, 195, 62, 122, 58, 249, 61, 26, 170, 71, 49, 242, 126, 0, 0, 126, 14, 0, 129, 196, 56, 0, 58, 22, 88, 195, 62, 122, 58, 249, 61, 26, 170, 71, 49, 242, 126, 0, 0, 126, 14, 0, 129, 196, 56, 0, 58, 8, 154, 13, 63, 100, 124, 8, 62, 16, 142, 78, 60, 0, 0, 126, 0, 125, 20, 0, 129, 27, 57, 0, 56, 96, 16, 196, 62, 174, 78, 224, 61, 116, 141, 78, 60, 0, 0, 126, 0, 126, 14, 0, 129, 196, 56, 0, 56, 75, 25, 13, 63, 68, 218, 20, 62, 218, 27, 15, 49, 236, 125, 0, 0, 125, 20, 0, 129, 27, 57, 0, 58, 8, 154, 13, 63, 100, 124, 8, 62, 16, 142, 78, 60, 0, 0, 126, 0, 125, 20, 0, 129, 27, 57, 0, 56, 22, 88, 195, 62, 122, 58, 249, 61, 26, 170, 71, 49, 242, 126, 0, 0, 126, 14, 0, 129, 196, 56, 0, 58, 96, 16, 196, 62, 174, 78, 224, 61, 116, 141, 78, 60, 0, 0, 126, 0, 126, 14, 0, 129, 196, 56, 0, 56, 158, 34, 14, 63, 158, 190, 246, 61, 157, 98, 74, 177, 20, 131, 0, 0, 125, 20, 0, 129, 27, 57, 0, 52, 124, 211, 196, 62, 111, 240, 197, 61, 144, 106, 66, 177, 14, 130, 0, 0, 126, 14, 0, 129, 196, 56, 0, 52, 8, 154, 13, 63, 100, 124, 8, 62, 16, 142, 78, 60, 0, 0, 126, 0, 125, 20, 0, 129, 27, 57, 0, 56, 158, 34, 14, 63, 158, 190, 246, 61, 157, 98, 74, 177, 20, 131, 0, 0, 125, 20, 0, 129, 27, 57, 0, 52, 96, 16, 196, 62, 174, 78, 224, 61, 116, 141, 78, 60, 0, 0, 126, 0, 126, 14, 0, 129, 196, 56, 0, 56, 202, 220, 57, 63, 183, 69, 28, 62, 100, 218, 161, 177, 26, 132, 0, 0, 124, 26, 0, 129, 114, 57, 0, 52, 8, 154, 13, 63, 100, 124, 8, 62, 16, 142, 78, 188, 0, 0, 130, 0, 125, 20, 0, 129, 27, 57, 0, 0, 158, 34, 14, 63, 158, 190, 246, 61, 157, 98, 74, 177, 20, 131, 0, 0, 125, 20, 0, 129, 27, 57, 0, 52, 202, 220, 57, 63, 183, 69, 28, 62, 100, 218, 161, 177, 26, 132, 0, 0, 124, 26, 0, 129, 114, 57, 0, 52, 184, 43, 57, 63, 184, 72, 41, 62, 204, 142, 78, 188, 0, 0, 130, 0, 124, 26, 0, 129, 114, 57, 0, 0, 8, 154, 13, 63, 100, 124, 8, 62, 16, 142, 78, 188, 0, 0, 130, 0, 125, 20, 0, 129, 27, 57, 0, 0, 184, 43, 57, 63, 184, 72, 41, 62, 204, 142, 78, 188, 0, 0, 130, 0, 124, 26, 0, 129, 114, 57, 0, 60, 75, 25, 13, 63, 68, 218, 20, 62, 218, 27, 15, 49, 236, 125, 0, 0, 125, 20, 0, 129, 27, 57, 0, 58, 8, 154, 13, 63, 100, 124, 8, 62, 16, 142, 78, 188, 0, 0, 130, 0, 125, 20, 0, 129, 27, 57, 0, 60, 184, 43, 57, 63, 184, 72, 41, 62, 204, 142, 78, 188, 0, 0, 130, 0, 124, 26, 0, 129, 114, 57, 0, 60, 64, 133, 56, 63, 1, 134, 53, 62, 28, 224, 71, 49, 230, 124, 0, 0, 124, 26, 0, 129, 114, 57, 0, 58, 75, 25, 13, 63, 68, 218, 20, 62, 218, 27, 15, 49, 236, 125, 0, 0, 125, 20, 0, 129, 27, 57, 0, 58, 75, 25, 13, 63, 68, 218, 20, 62, 218, 27, 15, 49, 236, 125, 0, 0, 125, 20, 0, 129, 27, 57, 0, 58, 184, 43, 57, 63, 184, 72, 41, 62, 200, 142, 78, 60, 0, 0, 126, 0, 124, 26, 0, 129, 114, 57, 0, 56, 8, 154, 13, 63, 100, 124, 8, 62, 16, 142, 78, 60, 0, 0, 126, 0, 125, 20, 0, 129, 27, 57, 0, 56, 64, 133, 56, 63, 1, 134, 53, 62, 28, 224, 71, 49, 230, 124, 0, 0, 124, 26, 0, 129, 114, 57, 0, 58, 184, 43, 57, 63, 184, 72, 41, 62, 200, 142, 78, 60, 0, 0, 126, 0, 124, 26, 0, 129, 114, 57, 0, 56, 75, 25, 13, 63, 68, 218, 20, 62, 218, 27, 15, 49, 236, 125, 0, 0, 125, 20, 0, 129, 27, 57, 0, 58, 8, 154, 13, 63, 100, 124, 8, 62, 16, 142, 78, 60, 0, 0, 126, 0, 125, 20, 0, 129, 27, 57, 0, 56, 202, 220, 57, 63, 183, 69, 28, 62, 100, 218, 161, 177, 26, 132, 0, 0, 124, 26, 0, 129, 114, 57, 0, 52, 158, 34, 14, 63, 158, 190, 246, 61, 157, 98, 74, 177, 20, 131, 0, 0, 125, 20, 0, 129, 27, 57, 0, 52, 184, 43, 57, 63, 184, 72, 41, 62, 200, 142, 78, 60, 0, 0, 126, 0, 124, 26, 0, 129, 114, 57, 0, 56, 202, 220, 57, 63, 183, 69, 28, 62, 100, 218, 161, 177, 26, 132, 0, 0, 124, 26, 0, 129, 114, 57, 0, 52, 8, 154, 13, 63, 100, 124, 8, 62, 16, 142, 78, 60, 0, 0, 126, 0, 125, 20, 0, 129, 27, 57, 0, 56, 81, 152, 101, 63, 165, 52, 70, 62, 36, 144, 137, 177, 32, 134, 0, 0, 122, 32, 0, 129, 201, 57, 0, 52, 184, 43, 57, 63, 184, 72, 41, 62, 204, 142, 78, 188, 0, 0, 130, 0, 124, 26, 0, 129, 114, 57, 0, 0, 202, 220, 57, 63, 183, 69, 28, 62, 100, 218, 161, 177, 26, 132, 0, 0, 124, 26, 0, 129, 114, 57, 0, 52, 81, 152, 101, 63, 165, 52, 70, 62, 36, 144, 137, 177, 32, 134, 0, 0, 122, 32, 0, 129, 201, 57, 0, 52, 63, 189, 100, 63, 50, 20, 83, 62, 156, 143, 78, 188, 0, 0, 130, 0, 122, 32, 0, 129, 201, 57, 0, 0, 184, 43, 57, 63, 184, 72, 41, 62, 204, 142, 78, 188, 0, 0, 130, 0, 124, 26, 0, 129, 114, 57, 0, 0, 63, 189, 100, 63, 50, 20, 83, 62, 156, 143, 78, 188, 0, 0, 130, 0, 122, 32, 0, 129, 201, 57, 0, 60, 64, 133, 56, 63, 1, 134, 53, 62, 28, 224, 71, 49, 230, 124, 0, 0, 124, 26, 0, 129, 114, 57, 0, 58, 184, 43, 57, 63, 184, 72, 41, 62, 204, 142, 78, 188, 0, 0, 130, 0, 124, 26, 0, 129, 114, 57, 0, 60, 63, 189, 100, 63, 50, 20, 83, 62, 156, 143, 78, 188, 0, 0, 130, 0, 122, 32, 0, 129, 201, 57, 0, 60, 217, 239, 99, 63, 140, 39, 95, 62, 208, 17, 187, 47, 224, 122, 0, 0, 122, 32, 0, 129, 201, 57, 0, 58, 64, 133, 56, 63, 1, 134, 53, 62, 28, 224, 71, 49, 230, 124, 0, 0, 124, 26, 0, 129, 114, 57, 0, 58, 64, 133, 56, 63, 1, 134, 53, 62, 28, 224, 71, 49, 230, 124, 0, 0, 124, 26, 0, 129, 114, 57, 0, 58, 63, 189, 100, 63, 50, 20, 83, 62, 156, 143, 78, 60, 0, 0, 126, 0, 122, 32, 0, 129, 201, 57, 0, 56, 184, 43, 57, 63, 184, 72, 41, 62, 200, 142, 78, 60, 0, 0, 126, 0, 124, 26, 0, 129, 114, 57, 0, 56, 217, 239, 99, 63, 140, 39, 95, 62, 208, 17, 187, 47, 224, 122, 0, 0, 122, 32, 0, 129, 201, 57, 0, 58, 63, 189, 100, 63, 50, 20, 83, 62, 156, 143, 78, 60, 0, 0, 126, 0, 122, 32, 0, 129, 201, 57, 0, 56, 64, 133, 56, 63, 1, 134, 53, 62, 28, 224, 71, 49, 230, 124, 0, 0, 124, 26, 0, 129, 114, 57, 0, 58, 184, 43, 57, 63, 184, 72, 41, 62, 200, 142, 78, 60, 0, 0, 126, 0, 124, 26, 0, 129, 114, 57, 0, 56, 81, 152, 101, 63, 165, 52, 70, 62, 36, 144, 137, 177, 32, 134, 0, 0, 122, 32, 0, 129, 201, 57, 0, 52, 202, 220, 57, 63, 183, 69, 28, 62, 100, 218, 161, 177, 26, 132, 0, 0, 124, 26, 0, 129, 114, 57, 0, 52, 63, 189, 100, 63, 50, 20, 83, 62, 156, 143, 78, 60, 0, 0, 126, 0, 122, 32, 0, 129, 201, 57, 0, 56, 81, 152, 101, 63, 165, 52, 70, 62, 36, 144, 137, 177, 32, 134, 0, 0, 122, 32, 0, 129, 201, 57, 0, 52, 184, 43, 57, 63, 184, 72, 41, 62, 200, 142, 78, 60, 0, 0, 126, 0, 124, 26, 0, 129, 114, 57, 0, 56, 145, 170, 136, 63, 22, 209, 121, 62, 14, 112, 218, 177, 39, 136, 0, 0, 120, 39, 0, 129, 32, 58, 0, 52, 63, 189, 100, 63, 50, 20, 83, 62, 156, 143, 78, 188, 0, 0, 130, 0, 122, 32, 0, 129, 201, 57, 0, 0, 81, 152, 101, 63, 165, 52, 70, 62, 36, 144, 137, 177, 32, 134, 0, 0, 122, 32, 0, 129, 201, 57, 0, 52, 145, 170, 136, 63, 22, 209, 121, 62, 14, 112, 218, 177, 39, 136, 0, 0, 120, 39, 0, 129, 32, 58, 0, 52, 78, 39, 136, 63, 49, 65, 131, 62, 136, 144, 78, 188, 0, 0, 130, 0, 120, 39, 0, 129, 32, 58, 0, 0, 63, 189, 100, 63, 50, 20, 83, 62, 156, 143, 78, 188, 0, 0, 130, 0, 122, 32, 0, 129, 201, 57, 0, 0, 78, 39, 136, 63, 49, 65, 131, 62, 136, 144, 78, 188, 0, 0, 130, 0, 120, 39, 0, 129, 32, 58, 0, 60, 217, 239, 99, 63, 140, 39, 95, 62, 208, 17, 187, 47, 224, 122, 0, 0, 122, 32, 0, 129, 201, 57, 0, 58, 63, 189, 100, 63, 50, 20, 83, 62, 156, 143, 78, 188, 0, 0, 130, 0, 122, 32, 0, 129, 201, 57, 0, 60, 78, 39, 136, 63, 49, 65, 131, 62, 136, 144, 78, 188, 0, 0, 130, 0, 120, 39, 0, 129, 32, 58, 0, 60, 148, 172, 135, 63, 217, 48, 137, 62, 32, 183, 156, 49, 217, 120, 0, 0, 120, 39, 0, 129, 32, 58, 0, 58, 217, 239, 99, 63, 140, 39, 95, 62, 208, 17, 187, 47, 224, 122, 0, 0, 122, 32, 0, 129, 201, 57, 0, 58, 217, 239, 99, 63, 140, 39, 95, 62, 208, 17, 187, 47, 224, 122, 0, 0, 122, 32, 0, 129, 201, 57, 0, 58, 78, 39, 136, 63, 49, 65, 131, 62, 136, 144, 78, 60, 0, 0, 126, 0, 120, 39, 0, 129, 32, 58, 0, 56, 63, 189, 100, 63, 50, 20, 83, 62, 156, 143, 78, 60, 0, 0, 126, 0, 122, 32, 0, 129, 201, 57, 0, 56, 148, 172, 135, 63, 217, 48, 137, 62, 32, 183, 156, 49, 217, 120, 0, 0, 120, 39, 0, 129, 32, 58, 0, 58, 78, 39, 136, 63, 49, 65, 131, 62, 136, 144, 78, 60, 0, 0, 126, 0, 120, 39, 0, 129, 32, 58, 0, 56, 217, 239, 99, 63, 140, 39, 95, 62, 208, 17, 187, 47, 224, 122, 0, 0, 122, 32, 0, 129, 201, 57, 0, 58, 63, 189, 100, 63, 50, 20, 83, 62, 156, 143, 78, 60, 0, 0, 126, 0, 122, 32, 0, 129, 201, 57, 0, 56, 145, 170, 136, 63, 22, 209, 121, 62, 14, 112, 218, 177, 39, 136, 0, 0, 120, 39, 0, 129, 32, 58, 0, 52, 81, 152, 101, 63, 165, 52, 70, 62, 36, 144, 137, 177, 32, 134, 0, 0, 122, 32, 0, 129, 201, 57, 0, 52, 78, 39, 136, 63, 49, 65, 131, 62, 136, 144, 78, 60, 0, 0, 126, 0, 120, 39, 0, 129, 32, 58, 0, 56, 145, 170, 136, 63, 22, 209, 121, 62, 14, 112, 218, 177, 39, 136, 0, 0, 120, 39, 0, 129, 32, 58, 0, 52, 63, 189, 100, 63, 50, 20, 83, 62, 156, 143, 78, 60, 0, 0, 126, 0, 122, 32, 0, 129, 201, 57, 0, 56, 132, 137, 158, 63, 211, 237, 155, 62, 39, 192, 161, 177, 45, 138, 0, 0, 118, 45, 0, 129, 119, 58, 0, 52, 78, 39, 136, 63, 49, 65, 131, 62, 136, 144, 78, 188, 0, 0, 130, 0, 120, 39, 0, 129, 32, 58, 0, 0, 145, 170, 136, 63, 22, 209, 121, 62, 14, 112, 218, 177, 39, 136, 0, 0, 120, 39, 0, 129, 32, 58, 0, 52, 132, 137, 158, 63, 211, 237, 155, 62, 39, 192, 161, 177, 45, 138, 0, 0, 118, 45, 0, 129, 119, 58, 0, 52, 235, 239, 157, 63, 66, 41, 162, 62, 108, 145, 78, 188, 0, 0, 130, 0, 118, 45, 0, 129, 119, 58, 0, 0, 78, 39, 136, 63, 49, 65, 131, 62, 136, 144, 78, 188, 0, 0, 130, 0, 120, 39, 0, 129, 32, 58, 0, 0, 235, 239, 157, 63, 66, 41, 162, 62, 108, 145, 78, 188, 0, 0, 130, 0, 118, 45, 0, 129, 119, 58, 0, 60, 148, 172, 135, 63, 217, 48, 137, 62, 32, 183, 156, 49, 217, 120, 0, 0, 120, 39, 0, 129, 32, 58, 0, 58, 78, 39, 136, 63, 49, 65, 131, 62, 136, 144, 78, 188, 0, 0, 130, 0, 120, 39, 0, 129, 32, 58, 0, 60, 235, 239, 157, 63, 66, 41, 162, 62, 108, 145, 78, 188, 0, 0, 130, 0, 118, 45, 0, 129, 119, 58, 0, 60, 177, 96, 157, 63, 133, 249, 167, 62, 180, 253, 194, 49, 211, 118, 0, 0, 118, 45, 0, 129, 119, 58, 0, 58, 148, 172, 135, 63, 217, 48, 137, 62, 32, 183, 156, 49, 217, 120, 0, 0, 120, 39, 0, 129, 32, 58, 0, 58, 148, 172, 135, 63, 217, 48, 137, 62, 32, 183, 156, 49, 217, 120, 0, 0, 120, 39, 0, 129, 32, 58, 0, 58, 235, 239, 157, 63, 66, 41, 162, 62, 108, 145, 78, 60, 0, 0, 126, 0, 118, 45, 0, 129, 119, 58, 0, 56, 78, 39, 136, 63, 49, 65, 131, 62, 136, 144, 78, 60, 0, 0, 126, 0, 120, 39, 0, 129, 32, 58, 0, 56, 177, 96, 157, 63, 133, 249, 167, 62, 180, 253, 194, 49, 211, 118, 0, 0, 118, 45, 0, 129, 119, 58, 0, 58, 235, 239, 157, 63, 66, 41, 162, 62, 108, 145, 78, 60, 0, 0, 126, 0, 118, 45, 0, 129, 119, 58, 0, 56, 148, 172, 135, 63, 217, 48, 137, 62, 32, 183, 156, 49, 217, 120, 0, 0, 120, 39, 0, 129, 32, 58, 0, 58, 78, 39, 136, 63, 49, 65, 131, 62, 136, 144, 78, 60, 0, 0, 126, 0, 120, 39, 0, 129, 32, 58, 0, 56, 132, 137, 158, 63, 211, 237, 155, 62, 39, 192, 161, 177, 45, 138, 0, 0, 118, 45, 0, 129, 119, 58, 0, 52, 145, 170, 136, 63, 22, 209, 121, 62, 14, 112, 218, 177, 39, 136, 0, 0, 120, 39, 0, 129, 32, 58, 0, 52, 235, 239, 157, 63, 66, 41, 162, 62, 108, 145, 78, 60, 0, 0, 126, 0, 118, 45, 0, 129, 119, 58, 0, 56, 132, 137, 158, 63, 211, 237, 155, 62, 39, 192, 161, 177, 45, 138, 0, 0, 118, 45, 0, 129, 119, 58, 0, 52, 78, 39, 136, 63, 49, 65, 131, 62, 136, 144, 78, 60, 0, 0, 126, 0, 120, 39, 0, 129, 32, 58, 0, 56, 212, 104, 180, 63, 60, 152, 192, 62, 99, 34, 82, 177, 52, 141, 0, 0, 115, 52, 0, 129, 206, 58, 0, 52, 235, 239, 157, 63, 66, 41, 162, 62, 108, 145, 78, 188, 0, 0, 130, 0, 118, 45, 0, 129, 119, 58, 0, 0, 132, 137, 158, 63, 211, 237, 155, 62, 39, 192, 161, 177, 45, 138, 0, 0, 118, 45, 0, 129, 119, 58, 0, 52, 212, 104, 180, 63, 60, 152, 192, 62, 99, 34, 82, 177, 52, 141, 0, 0, 115, 52, 0, 129, 206, 58, 0, 52, 124, 184, 179, 63, 203, 175, 198, 62, 60, 146, 78, 188, 0, 0, 130, 0, 115, 52, 0, 129, 206, 58, 0, 0, 235, 239, 157, 63, 66, 41, 162, 62, 108, 145, 78, 188, 0, 0, 130, 0, 118, 45, 0, 129, 119, 58, 0, 0, 124, 184, 179, 63, 203, 175, 198, 62, 60, 146, 78, 188, 0, 0, 130, 0, 115, 52, 0, 129, 206, 58, 0, 60, 177, 96, 157, 63, 133, 249, 167, 62, 180, 253, 194, 49, 211, 118, 0, 0, 118, 45, 0, 129, 119, 58, 0, 58, 235, 239, 157, 63, 66, 41, 162, 62, 108, 145, 78, 188, 0, 0, 130, 0, 118, 45, 0, 129, 119, 58, 0, 60, 124, 184, 179, 63, 203, 175, 198, 62, 60, 146, 78, 188, 0, 0, 130, 0, 115, 52, 0, 129, 206, 58, 0, 60, 114, 20, 179, 63, 17, 91, 204, 62, 118, 123, 85, 49, 204, 115, 0, 0, 115, 52, 0, 129, 206, 58, 0, 58, 177, 96, 157, 63, 133, 249, 167, 62, 180, 253, 194, 49, 211, 118, 0, 0, 118, 45, 0, 129, 119, 58, 0, 58, 177, 96, 157, 63, 133, 249, 167, 62, 180, 253, 194, 49, 211, 118, 0, 0, 118, 45, 0, 129, 119, 58, 0, 58, 124, 184, 179, 63, 203, 175, 198, 62, 60, 146, 78, 60, 0, 0, 126, 0, 115, 52, 0, 129, 206, 58, 0, 56, 235, 239, 157, 63, 66, 41, 162, 62, 108, 145, 78, 60, 0, 0, 126, 0, 118, 45, 0, 129, 119, 58, 0, 56, 114, 20, 179, 63, 17, 91, 204, 62, 118, 123, 85, 49, 204, 115, 0, 0, 115, 52, 0, 129, 206, 58, 0, 58, 124, 184, 179, 63, 203, 175, 198, 62, 60, 146, 78, 60, 0, 0, 126, 0, 115, 52, 0, 129, 206, 58, 0, 56, 177, 96, 157, 63, 133, 249, 167, 62, 180, 253, 194, 49, 211, 118, 0, 0, 118, 45, 0, 129, 119, 58, 0, 58, 235, 239, 157, 63, 66, 41, 162, 62, 108, 145, 78, 60, 0, 0, 126, 0, 118, 45, 0, 129, 119, 58, 0, 56, 212, 104, 180, 63, 60, 152, 192, 62, 99, 34, 82, 177, 52, 141, 0, 0, 115, 52, 0, 129, 206, 58, 0, 52, 132, 137, 158, 63, 211, 237, 155, 62, 39, 192, 161, 177, 45, 138, 0, 0, 118, 45, 0, 129, 119, 58, 0, 52, 124, 184, 179, 63, 203, 175, 198, 62, 60, 146, 78, 60, 0, 0, 126, 0, 115, 52, 0, 129, 206, 58, 0, 56, 212, 104, 180, 63, 60, 152, 192, 62, 99, 34, 82, 177, 52, 141, 0, 0, 115, 52, 0, 129, 206, 58, 0, 52, 235, 239, 157, 63, 66, 41, 162, 62, 108, 145, 78, 60, 0, 0, 126, 0, 118, 45, 0, 129, 119, 58, 0, 56, 64, 72, 202, 63, 123, 99, 235, 62, 32, 143, 65, 177, 59, 144, 0, 0, 112, 59, 0, 129, 38, 59, 0, 52, 124, 184, 179, 63, 203, 175, 198, 62, 60, 146, 78, 188, 0, 0, 130, 0, 115, 52, 0, 129, 206, 58, 0, 0, 212, 104, 180, 63, 60, 152, 192, 62, 99, 34, 82, 177, 52, 141, 0, 0, 115, 52, 0, 129, 206, 58, 0, 52, 64, 72, 202, 63, 123, 99, 235, 62, 32, 143, 65, 177, 59, 144, 0, 0, 112, 59, 0, 129, 38, 59, 0, 52, 13, 129, 201, 63, 45, 80, 241, 62, 232, 146, 78, 188, 0, 0, 130, 0, 112, 59, 0, 129, 38, 59, 0, 0, 124, 184, 179, 63, 203, 175, 198, 62, 60, 146, 78, 188, 0, 0, 130, 0, 115, 52, 0, 129, 206, 58, 0, 0, 13, 129, 201, 63, 45, 80, 241, 62, 232, 146, 78, 188, 0, 0, 130, 0, 112, 59, 0, 129, 38, 59, 0, 60, 114, 20, 179, 63, 17, 91, 204, 62, 118, 123, 85, 49, 204, 115, 0, 0, 115, 52, 0, 129, 206, 58, 0, 58, 124, 184, 179, 63, 203, 175, 198, 62, 60, 146, 78, 188, 0, 0, 130, 0, 115, 52, 0, 129, 206, 58, 0, 60, 13, 129, 201, 63, 45, 80, 241, 62, 232, 146, 78, 188, 0, 0, 130, 0, 112, 59, 0, 129, 38, 59, 0, 60, 24, 200, 200, 63, 212, 208, 246, 62, 24, 209, 131, 49, 197, 112, 0, 0, 112, 59, 0, 129, 38, 59, 0, 58, 114, 20, 179, 63, 17, 91, 204, 62, 118, 123, 85, 49, 204, 115, 0, 0, 115, 52, 0, 129, 206, 58, 0, 58, 114, 20, 179, 63, 17, 91, 204, 62, 118, 123, 85, 49, 204, 115, 0, 0, 115, 52, 0, 129, 206, 58, 0, 58, 13, 129, 201, 63, 45, 80, 241, 62, 236, 146, 78, 60, 0, 0, 126, 0, 112, 59, 0, 129, 38, 59, 0, 56, 124, 184, 179, 63, 203, 175, 198, 62, 60, 146, 78, 60, 0, 0, 126, 0, 115, 52, 0, 129, 206, 58, 0, 56, 24, 200, 200, 63, 212, 208, 246, 62, 24, 209, 131, 49, 197, 112, 0, 0, 112, 59, 0, 129, 38, 59, 0, 58, 13, 129, 201, 63, 45, 80, 241, 62, 236, 146, 78, 60, 0, 0, 126, 0, 112, 59, 0, 129, 38, 59, 0, 56, 114, 20, 179, 63, 17, 91, 204, 62, 118, 123, 85, 49, 204, 115, 0, 0, 115, 52, 0, 129, 206, 58, 0, 58, 124, 184, 179, 63, 203, 175, 198, 62, 60, 146, 78, 60, 0, 0, 126, 0, 115, 52, 0, 129, 206, 58, 0, 56, 64, 72, 202, 63, 123, 99, 235, 62, 32, 143, 65, 177, 59, 144, 0, 0, 112, 59, 0, 129, 38, 59, 0, 52, 212, 104, 180, 63, 60, 152, 192, 62, 99, 34, 82, 177, 52, 141, 0, 0, 115, 52, 0, 129, 206, 58, 0, 52, 13, 129, 201, 63, 45, 80, 241, 62, 236, 146, 78, 60, 0, 0, 126, 0, 112, 59, 0, 129, 38, 59, 0, 56, 64, 72, 202, 63, 123, 99, 235, 62, 32, 143, 65, 177, 59, 144, 0, 0, 112, 59, 0, 129, 38, 59, 0, 52, 124, 184, 179, 63, 203, 175, 198, 62, 60, 146, 78, 60, 0, 0, 126, 0, 115, 52, 0, 129, 206, 58, 0, 56, 121, 39, 224, 63, 111, 108, 14, 63, 33, 14, 82, 177, 64, 147, 0, 0, 109, 64, 255, 129, 125, 59, 0, 52, 13, 129, 201, 63, 45, 80, 241, 62, 232, 146, 78, 188, 0, 0, 130, 0, 112, 59, 0, 129, 38, 59, 0, 0, 64, 72, 202, 63, 123, 99, 235, 62, 32, 143, 65, 177, 59, 144, 0, 0, 112, 59, 0, 129, 38, 59, 0, 52, 121, 39, 224, 63, 111, 108, 14, 63, 33, 14, 82, 177, 64, 147, 0, 0, 109, 64, 255, 129, 125, 59, 0, 52, 165, 73, 223, 63, 214, 73, 17, 63, 88, 147, 78, 188, 255, 0, 130, 0, 109, 64, 255, 129, 125, 59, 0, 0, 13, 129, 201, 63, 45, 80, 241, 62, 232, 146, 78, 188, 0, 0, 130, 0, 112, 59, 0, 129, 38, 59, 0, 0, 165, 73, 223, 63, 214, 73, 17, 63, 88, 147, 78, 188, 255, 0, 130, 0, 109, 64, 255, 129, 125, 59, 0, 60, 24, 200, 200, 63, 212, 208, 246, 62, 24, 209, 131, 49, 197, 112, 0, 0, 112, 59, 0, 129, 38, 59, 0, 58, 13, 129, 201, 63, 45, 80, 241, 62, 232, 146, 78, 188, 0, 0, 130, 0, 112, 59, 0, 129, 38, 59, 0, 60, 165, 73, 223, 63, 214, 73, 17, 63, 88, 147, 78, 188, 255, 0, 130, 0, 109, 64, 255, 129, 125, 59, 0, 60, 237, 123, 222, 63, 33, 242, 19, 63, 68, 94, 22, 49, 192, 109, 0, 0, 109, 64, 255, 129, 125, 59, 0, 58, 24, 200, 200, 63, 212, 208, 246, 62, 24, 209, 131, 49, 197, 112, 0, 0, 112, 59, 0, 129, 38, 59, 0, 58, 24, 200, 200, 63, 212, 208, 246, 62, 24, 209, 131, 49, 197, 112, 0, 0, 112, 59, 0, 129, 38, 59, 0, 58, 165, 73, 223, 63, 214, 73, 17, 63, 92, 147, 78, 60, 0, 1, 126, 0, 109, 64, 255, 129, 125, 59, 0, 56, 13, 129, 201, 63, 45, 80, 241, 62, 236, 146, 78, 60, 0, 0, 126, 0, 112, 59, 0, 129, 38, 59, 0, 56, 237, 123, 222, 63, 33, 242, 19, 63, 68, 94, 22, 49, 192, 109, 0, 0, 109, 64, 255, 129, 125, 59, 0, 58, 165, 73, 223, 63, 214, 73, 17, 63, 92, 147, 78, 60, 0, 1, 126, 0, 109, 64, 255, 129, 125, 59, 0, 56, 24, 200, 200, 63, 212, 208, 246, 62, 24, 209, 131, 49, 197, 112, 0, 0, 112, 59, 0, 129, 38, 59, 0, 58, 13, 129, 201, 63, 45, 80, 241, 62, 236, 146, 78, 60, 0, 0, 126, 0, 112, 59, 0, 129, 38, 59, 0, 56, 121, 39, 224, 63, 111, 108, 14, 63, 33, 14, 82, 177, 64, 147, 0, 0, 109, 64, 255, 129, 125, 59, 0, 52, 64, 72, 202, 63, 123, 99, 235, 62, 32, 143, 65, 177, 59, 144, 0, 0, 112, 59, 0, 129, 38, 59, 0, 52, 165, 73, 223, 63, 214, 73, 17, 63, 92, 147, 78, 60, 0, 1, 126, 0, 109, 64, 255, 129, 125, 59, 0, 56, 121, 39, 224, 63, 111, 108, 14, 63, 33, 14, 82, 177, 64, 147, 0, 0, 109, 64, 255, 129, 125, 59, 0, 52, 13, 129, 201, 63, 45, 80, 241, 62, 236, 146, 78, 60, 0, 0, 126, 0, 112, 59, 0, 129, 38, 59, 0, 56, 167, 223, 248, 63, 189, 157, 44, 63, 161, 237, 109, 187, 66, 148, 0, 0, 108, 66, 254, 129, 212, 59, 0, 52, 165, 73, 223, 63, 214, 73, 17, 63, 88, 147, 78, 188, 255, 0, 130, 0, 109, 64, 255, 129, 125, 59, 0, 0, 121, 39, 224, 63, 111, 108, 14, 63, 33, 14, 82, 177, 64, 147, 0, 0, 109, 64, 255, 129, 125, 59, 0, 52, 167, 223, 248, 63, 189, 157, 44, 63, 161, 237, 109, 187, 66, 148, 0, 0, 108, 66, 254, 129, 212, 59, 0, 52, 10, 231, 247, 63, 190, 78, 47, 63, 108, 4, 133, 188, 0, 253, 130, 0, 108, 66, 254, 129, 212, 59, 0, 0, 165, 73, 223, 63, 214, 73, 17, 63, 88, 147, 78, 188, 255, 0, 130, 0, 109, 64, 255, 129, 125, 59, 0, 0, 10, 231, 247, 63, 190, 78, 47, 63, 108, 4, 133, 188, 0, 253, 130, 0, 108, 66, 254, 129, 212, 59, 0, 60, 237, 123, 222, 63, 33, 242, 19, 63, 68, 94, 22, 49, 192, 109, 0, 0, 109, 64, 255, 129, 125, 59, 0, 58, 165, 73, 223, 63, 214, 73, 17, 63, 88, 147, 78, 188, 255, 0, 130, 0, 109, 64, 255, 129, 125, 59, 0, 60, 10, 231, 247, 63, 190, 78, 47, 63, 108, 4, 133, 188, 0, 253, 130, 0, 108, 66, 254, 129, 212, 59, 0, 60, 74, 251, 246, 63, 186, 216, 49, 63, 109, 237, 109, 187, 190, 108, 0, 0, 108, 66, 254, 129, 212, 59, 0, 58, 237, 123, 222, 63, 33, 242, 19, 63, 68, 94, 22, 49, 192, 109, 0, 0, 109, 64, 255, 129, 125, 59, 0, 58, 237, 123, 222, 63, 33, 242, 19, 63, 68, 94, 22, 49, 192, 109, 0, 0, 109, 64, 255, 129, 125, 59, 0, 58, 10, 231, 247, 63, 190, 78, 47, 63, 20, 18, 19, 60, 2, 0, 126, 0, 108, 66, 254, 129, 212, 59, 0, 56, 165, 73, 223, 63, 214, 73, 17, 63, 92, 147, 78, 60, 0, 1, 126, 0, 109, 64, 255, 129, 125, 59, 0, 56, 74, 251, 246, 63, 186, 216, 49, 63, 109, 237, 109, 187, 190, 108, 0, 0, 108, 66, 254, 129, 212, 59, 0, 58, 10, 231, 247, 63, 190, 78, 47, 63, 20, 18, 19, 60, 2, 0, 126, 0, 108, 66, 254, 129, 212, 59, 0, 56, 237, 123, 222, 63, 33, 242, 19, 63, 68, 94, 22, 49, 192, 109, 0, 0, 109, 64, 255, 129, 125, 59, 0, 58, 165, 73, 223, 63, 214, 73, 17, 63, 92, 147, 78, 60, 0, 1, 126, 0, 109, 64, 255, 129, 125, 59, 0, 56, 167, 223, 248, 63, 189, 157, 44, 63, 161, 237, 109, 187, 66, 148, 0, 0, 108, 66, 254, 129, 212, 59, 0, 52, 121, 39, 224, 63, 111, 108, 14, 63, 33, 14, 82, 177, 64, 147, 0, 0, 109, 64, 255, 129, 125, 59, 0, 52, 10, 231, 247, 63, 190, 78, 47, 63, 20, 18, 19, 60, 2, 0, 126, 0, 108, 66, 254, 129, 212, 59, 0, 56, 167, 223, 248, 63, 189, 157, 44, 63, 161, 237, 109, 187, 66, 148, 0, 0, 108, 66, 254, 129, 212, 59, 0, 52, 165, 73, 223, 63, 214, 73, 17, 63, 92, 147, 78, 60, 0, 1, 126, 0, 109, 64, 255, 129, 125, 59, 0, 56 ),
"array_index_data": PoolByteArray(  ),
"blend_shape_data": [  ],
"format": 97303,
"index_count": 0,
"material": SubResource( 3 ),
"primitive": 4,
"skeleton_aabb": [  ],
"vertex_count": 528
}

[sub_resource type="SpatialMaterial" id=4]
resource_name = "Green"
params_cull_mode = 2
albedo_color = Color( 0.215686, 0.580392, 0.431373, 1 )
roughness = 0.5
emission_enabled = true
emission = Color( 0, 0, 0, 1 )
emission_energy = 1.0
emission_operator = 0
emission_on_uv2 = false

[sub_resource type="SpatialMaterial" id=5]
resource_name = "Red"
params_cull_mode = 2
albedo_color = Color( 0.67451, 0.196078, 0.196079, 1 )
roughness = 0.5
emission_enabled = true
emission = Color( 0, 0, 0, 1 )
emission_energy = 1.0
emission_operator = 0
emission_on_uv2 = false

[sub_resource type="SpatialMaterial" id=6]
resource_name = "Yellow"
params_cull_mode = 2
albedo_color = Color( 0.984314, 0.94902, 0.211765, 1 )
roughness = 0.5
emission_enabled = true
emission = Color( 0, 0, 0, 1 )
emission_energy = 1.0
emission_operator = 0
emission_on_uv2 = false

[sub_resource type="SpatialMaterial" id=7]
resource_name = "Blue"
params_cull_mode = 2
albedo_color = Color( 0.356863, 0.431373, 0.882353, 1 )
roughness = 0.5
emission_enabled = true
emission = Color( 0, 0, 0, 1 )
emission_energy = 1.0
emission_operator = 0
emission_on_uv2 = false

[sub_resource type="ArrayMesh" id=2]
resource_name = "Plane"
surfaces/0 = {
"aabb": AABB( -22.2712, 0.0116275, -5.54412, 38.9973, 1.00732e-05, 5.20311 ),
"array_data": PoolByteArray( 126, 43, 178, 193, 142, 129, 62, 60, 164, 221, 120, 192, 0, 130, 0, 0, 118, 0, 46, 129, 0, 0, 0, 60, 207, 79, 163, 193, 125, 130, 62, 60, 68, 124, 154, 192, 0, 130, 0, 0, 118, 0, 46, 129, 0, 60, 0, 0, 175, 236, 177, 193, 77, 130, 62, 60, 110, 105, 177, 192, 0, 130, 0, 0, 118, 0, 46, 129, 0, 0, 0, 0, 126, 43, 178, 193, 142, 129, 62, 60, 164, 221, 120, 192, 0, 130, 0, 0, 118, 0, 46, 129, 0, 0, 0, 60, 238, 13, 178, 193, 164, 129, 62, 60, 166, 128, 120, 192, 0, 130, 0, 0, 118, 0, 46, 129, 0, 60, 0, 60, 207, 79, 163, 193, 125, 130, 62, 60, 68, 124, 154, 192, 0, 130, 0, 0, 118, 0, 46, 129, 0, 60, 0, 0, 136, 26, 77, 193, 30, 131, 62, 60, 198, 146, 159, 191, 0, 129, 0, 0, 125, 0, 22, 129, 0, 0, 0, 60, 127, 161, 53, 193, 31, 131, 62, 60, 180, 176, 31, 192, 0, 129, 0, 0, 125, 0, 22, 129, 0, 60, 0, 0, 189, 212, 84, 193, 240, 130, 62, 60, 194, 249, 53, 192, 0, 129, 0, 0, 125, 0, 22, 129, 0, 0, 0, 0, 136, 26, 77, 193, 30, 131, 62, 60, 198, 146, 159, 191, 0, 129, 0, 0, 125, 0, 22, 129, 0, 0, 0, 60, 120, 217, 76, 193, 68, 129, 62, 60, 218, 53, 159, 191, 0, 129, 0, 0, 125, 0, 22, 129, 0, 60, 0, 60, 127, 161, 53, 193, 31, 131, 62, 60, 180, 176, 31, 192, 0, 129, 0, 0, 125, 0, 22, 129, 0, 60, 0, 0, 33, 252, 51, 192, 235, 130, 62, 60, 104, 166, 174, 190, 0, 129, 0, 0, 126, 0, 0, 129, 0, 0, 0, 60, 13, 22, 228, 191, 64, 131, 62, 60, 224, 125, 230, 191, 0, 129, 0, 0, 126, 0, 0, 129, 0, 60, 0, 0, 152, 139, 114, 192, 97, 131, 62, 60, 81, 26, 232, 191, 0, 129, 0, 0, 126, 0, 0, 129, 0, 0, 0, 0, 33, 252, 51, 192, 235, 130, 62, 60, 104, 166, 174, 190, 0, 129, 0, 0, 126, 0, 0, 129, 0, 0, 0, 60, 242, 240, 50, 192, 100, 130, 62, 60, 236, 152, 174, 190, 0, 129, 0, 0, 126, 0, 0, 129, 0, 60, 0, 60, 13, 22, 228, 191, 64, 131, 62, 60, 224, 125, 230, 191, 0, 129, 0, 0, 126, 0, 0, 129, 0, 60, 0, 0, 82, 101, 185, 64, 27, 131, 62, 60, 121, 179, 25, 192, 0, 129, 0, 0, 125, 0, 235, 129, 0, 0, 0, 0, 65, 244, 231, 64, 124, 129, 62, 60, 123, 124, 146, 191, 0, 129, 0, 0, 125, 0, 235, 129, 0, 60, 0, 60, 97, 238, 247, 64, 244, 130, 62, 60, 213, 77, 47, 192, 0, 129, 0, 0, 125, 0, 235, 129, 0, 60, 0, 0, 81, 113, 231, 64, 26, 130, 62, 60, 10, 34, 146, 191, 0, 129, 0, 0, 125, 0, 235, 129, 0, 0, 0, 60, 65, 244, 231, 64, 124, 129, 62, 60, 123, 124, 146, 191, 0, 129, 0, 0, 125, 0, 235, 129, 0, 60, 0, 60, 82, 101, 185, 64, 27, 131, 62, 60, 121, 179, 25, 192, 0, 129, 0, 0, 125, 0, 235, 129, 0, 0, 0, 0, 87, 153, 109, 65, 142, 130, 62, 60, 66, 196, 151, 192, 0, 130, 0, 0, 117, 0, 209, 129, 0, 0, 0, 0, 247, 206, 133, 65, 247, 129, 62, 60, 154, 171, 116, 192, 0, 130, 0, 0, 117, 0, 209, 129, 0, 60, 0, 60, 210, 207, 132, 65, 89, 130, 62, 60, 179, 154, 174, 192, 0, 130, 0, 0, 117, 0, 209, 129, 0, 60, 0, 0, 134, 177, 133, 65, 63, 129, 62, 60, 158, 75, 116, 192, 0, 130, 0, 0, 117, 0, 209, 129, 0, 0, 0, 60, 247, 206, 133, 65, 247, 129, 62, 60, 154, 171, 116, 192, 0, 130, 0, 0, 117, 0, 209, 129, 0, 60, 0, 60, 87, 153, 109, 65, 142, 130, 62, 60, 66, 196, 151, 192, 0, 130, 0, 0, 117, 0, 209, 129, 0, 0, 0, 0 ),
"array_index_data": PoolByteArray(  ),
"blend_shape_data": [  ],
"format": 97303,
"index_count": 0,
"material": SubResource( 4 ),
"primitive": 4,
"skeleton_aabb": [  ],
"vertex_count": 30
}
surfaces/1 = {
"aabb": AABB( -20.0547, 0.0116272, -6.40638, 38.9593, 1.04895e-05, 6.02902 ),
"array_data": PoolByteArray( 152, 252, 159, 193, 66, 130, 62, 60, 46, 3, 68, 192, 0, 130, 0, 0, 120, 0, 40, 129, 0, 0, 0, 60, 184, 215, 145, 193, 189, 130, 62, 60, 49, 207, 130, 192, 0, 130, 0, 0, 120, 0, 40, 129, 0, 60, 0, 0, 17, 112, 160, 193, 140, 130, 62, 60, 141, 79, 150, 192, 0, 130, 0, 0, 120, 0, 40, 129, 0, 0, 0, 0, 152, 252, 159, 193, 66, 130, 62, 60, 46, 3, 68, 192, 0, 130, 0, 0, 120, 0, 40, 129, 0, 0, 0, 60, 12, 222, 159, 193, 113, 130, 62, 60, 138, 177, 67, 192, 0, 130, 0, 0, 120, 0, 40, 129, 0, 60, 0, 60, 184, 215, 145, 193, 189, 130, 62, 60, 49, 207, 130, 192, 0, 130, 0, 0, 120, 0, 40, 129, 0, 60, 0, 0, 158, 133, 37, 193, 127, 129, 62, 60, 232, 133, 92, 191, 0, 130, 0, 0, 125, 0, 16, 129, 0, 0, 0, 60, 14, 191, 15, 193, 34, 131, 62, 60, 109, 241, 10, 192, 0, 130, 0, 0, 125, 0, 16, 129, 0, 60, 0, 0, 210, 88, 47, 193, 28, 131, 62, 60, 249, 199, 27, 192, 0, 130, 0, 0, 125, 0, 16, 129, 0, 0, 0, 0, 158, 133, 37, 193, 127, 129, 62, 60, 232, 133, 92, 191, 0, 130, 0, 0, 125, 0, 16, 129, 0, 0, 0, 60, 210, 67, 37, 193, 30, 131, 62, 60, 174, 249, 91, 191, 0, 130, 0, 0, 125, 0, 16, 129, 0, 60, 0, 60, 14, 191, 15, 193, 34, 131, 62, 60, 109, 241, 10, 192, 0, 130, 0, 0, 125, 0, 16, 129, 0, 60, 0, 0, 32, 176, 176, 191, 69, 131, 62, 60, 42, 60, 231, 191, 0, 129, 0, 0, 126, 0, 252, 129, 0, 0, 0, 0, 52, 175, 138, 190, 111, 130, 62, 60, 174, 129, 193, 190, 0, 129, 0, 0, 126, 0, 252, 129, 0, 60, 0, 60, 86, 17, 32, 63, 46, 131, 62, 60, 194, 87, 240, 191, 0, 129, 0, 0, 126, 0, 252, 129, 0, 60, 0, 0, 76, 8, 147, 190, 187, 129, 62, 60, 252, 53, 193, 190, 0, 129, 0, 0, 126, 0, 252, 129, 0, 0, 0, 60, 52, 175, 138, 190, 111, 130, 62, 60, 174, 129, 193, 190, 0, 129, 0, 0, 126, 0, 252, 129, 0, 60, 0, 60, 32, 176, 176, 191, 69, 131, 62, 60, 42, 60, 231, 191, 0, 129, 0, 0, 126, 0, 252, 129, 0, 0, 0, 0, 221, 42, 2, 65, 30, 131, 62, 60, 132, 57, 52, 192, 0, 129, 0, 0, 123, 0, 229, 129, 0, 0, 0, 0, 51, 67, 27, 65, 236, 129, 62, 60, 19, 233, 208, 191, 0, 129, 0, 0, 123, 0, 229, 129, 0, 60, 0, 60, 123, 222, 32, 65, 203, 130, 62, 60, 128, 222, 79, 192, 0, 129, 0, 0, 123, 0, 229, 129, 0, 60, 0, 0, 200, 2, 27, 65, 246, 128, 62, 60, 28, 117, 208, 191, 0, 129, 0, 0, 123, 0, 229, 129, 0, 0, 0, 60, 51, 67, 27, 65, 236, 129, 62, 60, 19, 233, 208, 191, 0, 129, 0, 0, 123, 0, 229, 129, 0, 60, 0, 60, 221, 42, 2, 65, 30, 131, 62, 60, 132, 57, 52, 192, 0, 129, 0, 0, 123, 0, 229, 129, 0, 0, 0, 0, 224, 142, 135, 65, 67, 130, 62, 60, 143, 115, 179, 192, 0, 130, 0, 0, 114, 0, 202, 129, 0, 0, 0, 0, 157, 60, 151, 65, 83, 128, 62, 60, 60, 26, 153, 192, 0, 130, 0, 0, 114, 0, 202, 129, 0, 60, 0, 60, 193, 12, 149, 65, 34, 130, 62, 60, 17, 1, 205, 192, 0, 130, 0, 0, 114, 0, 202, 129, 0, 60, 0, 0, 109, 32, 151, 65, 52, 128, 62, 60, 153, 228, 152, 192, 0, 130, 0, 0, 114, 0, 202, 129, 0, 0, 0, 60, 157, 60, 151, 65, 83, 128, 62, 60, 60, 26, 153, 192, 0, 130, 0, 0, 114, 0, 202, 129, 0, 60, 0, 60, 224, 142, 135, 65, 67, 130, 62, 60, 143, 115, 179, 192, 0, 130, 0, 0, 114, 0, 202, 129, 0, 0, 0, 0 ),
"array_index_data": PoolByteArray(  ),
"blend_shape_data": [  ],
"format": 97303,
"index_count": 0,
"material": SubResource( 5 ),
"primitive": 4,
"skeleton_aabb": [  ],
"vertex_count": 30
}
surfaces/2 = {
"aabb": AABB( -17.8601, 0.0116274, -3.97457, 30.1669, 1.06096e-05, 3.45423 ),
"array_data": PoolByteArray( 218, 65, 141, 193, 121, 131, 62, 60, 140, 39, 22, 192, 0, 129, 0, 0, 122, 0, 34, 129, 0, 0, 0, 60, 63, 195, 127, 193, 211, 130, 62, 60, 228, 240, 92, 192, 0, 129, 0, 0, 122, 0, 34, 129, 0, 60, 0, 0, 143, 225, 142, 193, 181, 130, 62, 60, 100, 95, 126, 192, 0, 129, 0, 0, 122, 0, 34, 129, 0, 0, 0, 0, 218, 65, 141, 193, 121, 131, 62, 60, 140, 39, 22, 192, 0, 129, 0, 0, 122, 0, 34, 129, 0, 0, 0, 60, 124, 34, 141, 193, 222, 129, 62, 60, 163, 225, 21, 192, 0, 129, 0, 0, 122, 0, 34, 129, 0, 60, 0, 60, 63, 195, 127, 193, 211, 130, 62, 60, 228, 240, 92, 192, 0, 129, 0, 0, 122, 0, 34, 129, 0, 60, 0, 0, 199, 32, 251, 192, 32, 130, 62, 60, 113, 50, 21, 191, 0, 129, 0, 0, 126, 0, 11, 129, 0, 0, 0, 60, 42, 6, 211, 192, 50, 131, 62, 60, 117, 64, 249, 191, 0, 129, 0, 0, 126, 0, 11, 129, 0, 60, 0, 0, 1, 101, 9, 193, 34, 131, 62, 60, 242, 28, 8, 192, 0, 129, 0, 0, 126, 0, 11, 129, 0, 0, 0, 0, 199, 32, 251, 192, 32, 130, 62, 60, 113, 50, 21, 191, 0, 129, 0, 0, 126, 0, 11, 129, 0, 0, 0, 60, 44, 156, 250, 192, 210, 130, 62, 60, 235, 210, 20, 191, 0, 129, 0, 0, 126, 0, 11, 129, 0, 60, 0, 60, 42, 6, 211, 192, 50, 131, 62, 60, 117, 64, 249, 191, 0, 129, 0, 0, 126, 0, 11, 129, 0, 60, 0, 0, 71, 74, 131, 63, 34, 131, 62, 60, 216, 64, 243, 191, 0, 129, 0, 0, 126, 0, 247, 129, 0, 0, 0, 0, 138, 6, 16, 64, 244, 129, 62, 60, 220, 136, 5, 191, 0, 129, 0, 0, 126, 0, 247, 129, 0, 60, 0, 60, 218, 108, 65, 64, 38, 131, 62, 60, 232, 172, 3, 192, 0, 129, 0, 0, 126, 0, 247, 129, 0, 60, 0, 0, 38, 252, 14, 64, 10, 129, 62, 60, 37, 53, 5, 191, 0, 129, 0, 0, 126, 0, 247, 129, 0, 0, 0, 60, 138, 6, 16, 64, 244, 129, 62, 60, 220, 136, 5, 191, 0, 129, 0, 0, 126, 0, 247, 129, 0, 60, 0, 60, 71, 74, 131, 63, 34, 131, 62, 60, 216, 64, 243, 191, 0, 129, 0, 0, 126, 0, 247, 129, 0, 0, 0, 0, 246, 240, 38, 65, 205, 130, 62, 60, 120, 2, 86, 192, 0, 129, 0, 0, 122, 0, 222, 129, 0, 0, 0, 0, 10, 203, 65, 65, 142, 130, 62, 60, 124, 117, 15, 192, 0, 129, 0, 0, 122, 0, 222, 129, 0, 60, 0, 60, 177, 232, 68, 65, 198, 130, 62, 60, 166, 198, 119, 192, 0, 129, 0, 0, 122, 0, 222, 129, 0, 60, 0, 0, 15, 140, 65, 65, 234, 128, 62, 60, 134, 46, 15, 192, 0, 129, 0, 0, 122, 0, 222, 129, 0, 0, 0, 60, 10, 203, 65, 65, 142, 130, 62, 60, 124, 117, 15, 192, 0, 129, 0, 0, 122, 0, 222, 129, 0, 60, 0, 60, 246, 240, 38, 65, 205, 130, 62, 60, 120, 2, 86, 192, 0, 129, 0, 0, 122, 0, 222, 129, 0, 0, 0, 0 ),
"array_index_data": PoolByteArray(  ),
"blend_shape_data": [  ],
"format": 97303,
"index_count": 0,
"material": SubResource( 6 ),
"primitive": 4,
"skeleton_aabb": [  ],
"vertex_count": 24
}
surfaces/3 = {
"aabb": AABB( -15.6057, 0.0116274, -4.60895, 30.0986, 1.05305e-05, 4.20037 ),
"array_data": PoolByteArray( 227, 40, 116, 193, 222, 130, 62, 60, 116, 215, 222, 191, 0, 129, 0, 0, 123, 0, 28, 129, 0, 0, 0, 60, 170, 5, 91, 193, 248, 130, 62, 60, 16, 252, 58, 192, 0, 129, 0, 0, 123, 0, 28, 129, 0, 60, 0, 0, 4, 177, 121, 193, 227, 130, 62, 60, 188, 208, 86, 192, 0, 129, 0, 0, 123, 0, 28, 129, 0, 0, 0, 0, 227, 40, 116, 193, 222, 130, 62, 60, 116, 215, 222, 191, 0, 129, 0, 0, 123, 0, 28, 129, 0, 0, 0, 60, 214, 232, 115, 193, 161, 129, 62, 60, 54, 99, 222, 191, 0, 129, 0, 0, 123, 0, 28, 129, 0, 60, 0, 60, 170, 5, 91, 193, 248, 130, 62, 60, 16, 252, 58, 192, 0, 129, 0, 0, 123, 0, 28, 129, 0, 60, 0, 0, 227, 180, 170, 192, 223, 131, 62, 60, 168, 150, 209, 190, 0, 129, 0, 0, 126, 0, 6, 129, 0, 0, 0, 60, 144, 29, 134, 192, 92, 131, 62, 60, 54, 124, 233, 191, 0, 129, 0, 0, 126, 0, 6, 129, 0, 60, 0, 0, 216, 58, 198, 192, 56, 131, 62, 60, 192, 184, 245, 191, 0, 129, 0, 0, 126, 0, 6, 129, 0, 0, 0, 0, 227, 180, 170, 192, 223, 131, 62, 60, 168, 150, 209, 190, 0, 129, 0, 0, 126, 0, 6, 129, 0, 0, 0, 60, 152, 47, 170, 192, 8, 131, 62, 60, 22, 49, 209, 190, 0, 129, 0, 0, 126, 0, 6, 129, 0, 60, 0, 60, 144, 29, 134, 192, 92, 131, 62, 60, 54, 124, 233, 191, 0, 129, 0, 0, 126, 0, 6, 129, 0, 60, 0, 0, 200, 227, 90, 64, 40, 131, 62, 60, 55, 63, 6, 192, 0, 129, 0, 0, 126, 0, 241, 129, 0, 0, 0, 0, 172, 82, 152, 64, 50, 130, 62, 60, 108, 145, 70, 191, 0, 129, 0, 0, 126, 0, 241, 129, 0, 60, 0, 60, 66, 204, 172, 64, 26, 131, 62, 60, 85, 249, 21, 192, 0, 129, 0, 0, 126, 0, 241, 129, 0, 60, 0, 0, 87, 206, 151, 64, 241, 129, 62, 60, 12, 14, 70, 191, 0, 129, 0, 0, 126, 0, 241, 129, 0, 0, 0, 60, 172, 82, 152, 64, 50, 130, 62, 60, 108, 145, 70, 191, 0, 129, 0, 0, 126, 0, 241, 129, 0, 60, 0, 60, 200, 227, 90, 64, 40, 131, 62, 60, 55, 63, 6, 192, 0, 129, 0, 0, 126, 0, 241, 129, 0, 0, 0, 0, 67, 209, 74, 65, 168, 130, 62, 60, 216, 35, 127, 192, 0, 129, 0, 0, 120, 0, 215, 129, 0, 0, 0, 0, 245, 82, 103, 65, 233, 129, 62, 60, 170, 68, 62, 192, 0, 129, 0, 0, 120, 0, 215, 129, 0, 60, 0, 60, 195, 226, 103, 65, 125, 130, 62, 60, 134, 124, 147, 192, 0, 129, 0, 0, 120, 0, 215, 129, 0, 60, 0, 0, 217, 21, 103, 65, 164, 128, 62, 60, 236, 240, 61, 192, 0, 129, 0, 0, 120, 0, 215, 129, 0, 0, 0, 60, 245, 82, 103, 65, 233, 129, 62, 60, 170, 68, 62, 192, 0, 129, 0, 0, 120, 0, 215, 129, 0, 60, 0, 60, 67, 209, 74, 65, 168, 130, 62, 60, 216, 35, 127, 192, 0, 129, 0, 0, 120, 0, 215, 129, 0, 0, 0, 0 ),
"array_index_data": PoolByteArray(  ),
"blend_shape_data": [  ],
"format": 97303,
"index_count": 0,
"material": SubResource( 7 ),
"primitive": 4,
"skeleton_aabb": [  ],
"vertex_count": 24
}

[node name="guirlande" type="Spatial"]
transform = Transform( 4.26504, 0, 0, 0, 4.26504, 0, 0, 0, 4.26504, 0, 0, 0 )

[node name="rope" type="MeshInstance" parent="."]
transform = Transform( 1.10842, 0, 0, 0, 1.10842, 0, 0, 0, 1.10842, -0.00882976, 0.00915852, 0.000107724 )
mesh = SubResource( 1 )
material/0 = null

[node name="not rope" type="MeshInstance" parent="."]
transform = Transform( 0.105584, 0, 0, 0, 0, -0.145727, 0, 0.105584, 0, 0.171713, -0.170604, -0.00209492 )
mesh = SubResource( 2 )
material/0 = null
material/1 = null
material/2 = null
material/3 = null
